{
  "name": "DiscountAmountYTDVariance%_PI",
  "description": "Discount Amount YTD Variance as a percentage of Discount Amount LYTD",
  "expression": [
    "DIVIDE ( [DiscountAmountYTDVariance_PI], [DiscountAmountLYTD_PI] )",
    "",
    ""
  ],
  "formatString": "#,##0.0 %",
  "displayFolder": "Σ YTD",
  "annotations": [
    {
      "name": "TabularEditor_TranslatedNames",
      "value": "{\"en-US\":\"Discount Amount YTD Variance %\"}"
    },
    {
      "name": "TabularEditor_TranslatedDisplayFolders",
      "value": "{\"en-US\":\"Σ YTD\"}"
    }
  ]
}