{
  "name": "Discount%_PI",
  "description": "Discount percentage",
  "expression": "DIVIDE([DiscountAmount_PI],[NetAmount_PI])",
  "formatString": "#,##0.0 %",
  "annotations": [
    {
      "name": "TabularEditor_TranslatedNames",
      "value": "{\"en-US\":\"Discount %\"}"
    }
  ]
}