{
  "name": "InvoicedQuantity_PI",
  "description": "Sum of invoiced quantity",
  "expression": [
    "SUM ( 'factPurchaseInvoice'[InvoicedQuantity] )",
    "",
    ""
  ],
  "formatString": "#,##0",
  "annotations": [
    {
      "name": "TabularEditor_TranslatedNames",
      "value": "{\"en-US\":\"Invoiced Quantity\"}"
    }
  ]
}