{
  "name": "InvoiceBalance_CT",
  "description": "Balance of invoice amounts at the end of the selected period.",
  "expression": "[OpenInvoiceAmount_CT]",
  "formatString": "#,##0.00",
  "annotations": [
    {
      "name": "TabularEditor_TranslatedNames",
      "value": "{\"en-US\":\"Invoice Balance\"}"
    }
  ]
}