{
  "name": "PostedInvoices_CT",
  "description": "Number of invoices posted during the selected period.",
  "expression": [
    "VAR InvoicesOnly =",
    "    FILTER ( IsInvoice, 'IsInvoice'[YesNoCode] = 1 )",
    "RETURN",
    "    CALCULATE (",
    "        DISTINCTCOUNT ( factCustomerTransaction[SalesInvoiceID] ),",
    "        factCustomerTransaction[SalesInvoiceID] <> 0,",
    "        InvoicesOnly",
    "    )"
  ],
  "formatString": "#,##0",
  "annotations": [
    {
      "name": "TabularEditor_TranslatedNames",
      "value": "{\"en-US\":\"Posted Invoices\"}"
    }
  ]
}