{
  "name": "TotalOpenInvoicesLYTD_CT",
  "description": "Invoices open at any time during period last year up to current date last year.",
  "expression": [
    "VAR MaxYear =",
    "    MAX ( 'Date'[CYearNo] ) - 1",
    "VAR MaxDate =",
    "    CALCULATE (",
    "        MAX ( 'Date'[Date] ),",
    "        FILTER (",
    "            ALL ( 'Date' ),",
    "            'Date'[CYearNo] = MaxYear",
    "                && 'Date'[Date] <= MAX ( 'Date'[TDatePY] )",
    "        )",
    "    )",
    "VAR MinDate =",
    "    CALCULATE (",
    "        MIN ( 'Date'[Date] ),",
    "        FILTER ( ALL ( 'Date' ), 'Date'[CYearNo] = MaxYear && 'Date'[Date] <= MaxDate )",
    "    )",
    "VAR OpenInvoices =",
    "    FILTER (",
    "        SalesInvoice,",
    "        SalesInvoice[ClosedDate] > MinDate",
    "            && SalesInvoice[InvoiceDate] <= MaxDate",
    "            && SalesInvoice[SalesInvoiceID] <> 0",
    "    )",
    "VAR AllDates =",
    "    ALL ( 'Date' )",
    "RETURN",
    "    CALCULATE (",
    "        DISTINCTCOUNT ( factCustomerTransaction[SalesInvoiceID] ),",
    "        OpenInvoices,",
    "        AllDates",
    "    )"
  ],
  "formatString": "#,##0",
  "displayFolder": "Σ LYTD",
  "annotations": [
    {
      "name": "TabularEditor_TranslatedNames",
      "value": "{\"en-US\":\"Total Open Invoices LYTD\"}"
    },
    {
      "name": "TabularEditor_TranslatedDisplayFolders",
      "value": "{\"en-US\":\"Σ LYTD\"}"
    }
  ]
}