{
  "name": "PurchasedQuantity_PO",
  "description": "Sum of purchased quantity",
  "expression": [
    "SUM ( 'factPurchaseOrder'[PurchaseQuantity] )",
    "",
    ""
  ],
  "formatString": "#,##0",
  "annotations": [
    {
      "name": "TabularEditor_TranslatedNames",
      "value": "{\"en-US\":\"Purchased Quantity\"}"
    }
  ]
}