{
  "name": "Location",
  "columns": [
    {
      "name": "CompanyID",
      "dataType": "int64",
      "isHidden": true,
      "sourceColumn": "CompanyID",
      "sourceProviderType": "Integer"
    },
    {
      "name": "ComponentExecutionID",
      "dataType": "int64",
      "isHidden": true,
      "sourceColumn": "ComponentExecutionID",
      "sourceProviderType": "Integer"
    },
    {
      "name": "DataConnectionID",
      "dataType": "int64",
      "isHidden": true,
      "sourceColumn": "DataConnectionID",
      "sourceProviderType": "Integer"
    },
    {
      "name": "LocationCodeDesc",
      "dataType": "string",
      "sourceColumn": "LocationCodeDesc",
      "sourceProviderType": "WChar",
      "annotations": [
        {
          "name": "TabularEditor_TranslatedNames",
          "value": "{\"en-US\":\"Location\"}"
        }
      ]
    },
    {
      "name": "LocationCode",
      "dataType": "string",
      "isHidden": true,
      "sourceColumn": "LocationCode",
      "sourceProviderType": "WChar"
    },
    {
      "name": "LocationDesc",
      "dataType": "string",
      "isHidden": true,
      "sourceColumn": "LocationDesc",
      "sourceProviderType": "WChar"
    },
    {
      "name": "LocationID",
      "dataType": "int64",
      "isHidden": true,
      "sourceColumn": "LocationID",
      "sourceProviderType": "Integer"
    },
    {
      "name": "Partition",
      "dataType": "int64",
      "isHidden": true,
      "sourceColumn": "Partition",
      "sourceProviderType": "BigInt"
    },
    {
      "name": "SiteCodeDesc",
      "dataType": "string",
      "sourceColumn": "SiteCodeDesc",
      "sourceProviderType": "WChar",
      "annotations": [
        {
          "name": "TabularEditor_TranslatedNames",
          "value": "{\"en-US\":\"Site\"}"
        }
      ]
    },
    {
      "name": "SiteCode",
      "dataType": "string",
      "isHidden": true,
      "sourceColumn": "SiteCode",
      "sourceProviderType": "WChar"
    },
    {
      "name": "SiteDesc",
      "dataType": "string",
      "isHidden": true,
      "sourceColumn": "SiteDesc",
      "sourceProviderType": "WChar"
    }
  ],
  "partitions": [
    {
      "name": "Location",
      "dataView": "full",
      "source": {
        "type": "query",
        "query": " SELECT [dim].[Location].* FROM [dim].[Location] ",
        "dataSource": "Birds"
      }
    }
  ],
  "annotations": [
    {
      "name": "_TM_ExtProp_QueryDefinition",
      "value": " SELECT [dim].[Location].* FROM [dim].[Location] "
    },
    {
      "name": "_TM_ExtProp_DbTableName",
      "value": "Location"
    },
    {
      "name": "_TM_ExtProp_DbSchemaName",
      "value": "dim"
    },
    {
      "name": "TabularEditor_TranslatedNames",
      "value": "{\"en-US\":\"Location\"}"
    }
  ]
}