{
  "connection_types": [
    {
      "category": "AX",
      "name": "AX2012R3"
    }
  ],
  "tables": [
    {
      "table_identifier": "dbo.FISCALCALENDAR",
      "columns": [
        {
          "column_name": "CALENDARID",
          "data_type": "nvarchar",
          "character_maximum_length": 10,
          "numeric_precision": null,
          "numeric_scale": null,
          "nullable": false,
          "business_key": false
        },
        {
          "column_name": "DESCRIPTION",
          "data_type": "nvarchar",
          "character_maximum_length": 60,
          "numeric_precision": null,
          "numeric_scale": null,
          "nullable": false,
          "business_key": false
        },
        {
          "column_name": "MODIFIEDDATETIME",
          "data_type": "datetime",
          "character_maximum_length": null,
          "numeric_precision": null,
          "numeric_scale": null,
          "nullable": false,
          "business_key": false
        },
        {
          "column_name": "MODIFIEDBY",
          "data_type": "nvarchar",
          "character_maximum_length": 8,
          "numeric_precision": null,
          "numeric_scale": null,
          "nullable": false,
          "business_key": false
        },
        {
          "column_name": "RECVERSION",
          "data_type": "int",
          "character_maximum_length": null,
          "numeric_precision": 10,
          "numeric_scale": 0,
          "nullable": false,
          "business_key": false
        },
        {
          "column_name": "PARTITION",
          "data_type": "bigint",
          "character_maximum_length": null,
          "numeric_precision": 19,
          "numeric_scale": 0,
          "nullable": false,
          "business_key": false
        },
        {
          "column_name": "RECID",
          "data_type": "bigint",
          "character_maximum_length": null,
          "numeric_precision": 19,
          "numeric_scale": 0,
          "nullable": false,
          "business_key": false
        }
      ]
    },
    {
      "table_identifier": "dbo.FISCALCALENDARPERIOD",
      "columns": [
        {
          "column_name": "ENDDATE",
          "data_type": "datetime",
          "character_maximum_length": null,
          "numeric_precision": null,
          "numeric_scale": null,
          "nullable": false,
          "business_key": false
        },
        {
          "column_name": "DESCRIPTION",
          "data_type": "nvarchar",
          "character_maximum_length": 60,
          "numeric_precision": null,
          "numeric_scale": null,
          "nullable": false,
          "business_key": false
        },
        {
          "column_name": "MONTH",
          "data_type": "int",
          "character_maximum_length": null,
          "numeric_precision": 10,
          "numeric_scale": 0,
          "nullable": false,
          "business_key": false
        },
        {
          "column_name": "QUARTER",
          "data_type": "int",
          "character_maximum_length": null,
          "numeric_precision": 10,
          "numeric_scale": 0,
          "nullable": false,
          "business_key": false
        },
        {
          "column_name": "STARTDATE",
          "data_type": "datetime",
          "character_maximum_length": null,
          "numeric_precision": null,
          "numeric_scale": null,
          "nullable": false,
          "business_key": false
        },
        {
          "column_name": "FISCALCALENDARYEAR",
          "data_type": "bigint",
          "character_maximum_length": null,
          "numeric_precision": 19,
          "numeric_scale": 0,
          "nullable": false,
          "business_key": false
        },
        {
          "column_name": "SHORTNAME",
          "data_type": "nvarchar",
          "character_maximum_length": 8,
          "numeric_precision": null,
          "numeric_scale": null,
          "nullable": false,
          "business_key": false
        },
        {
          "column_name": "NAME",
          "data_type": "nvarchar",
          "character_maximum_length": 60,
          "numeric_precision": null,
          "numeric_scale": null,
          "nullable": false,
          "business_key": false
        },
        {
          "column_name": "TYPE",
          "data_type": "int",
          "character_maximum_length": null,
          "numeric_precision": 10,
          "numeric_scale": 0,
          "nullable": false,
          "business_key": false
        },
        {
          "column_name": "FISCALCALENDAR",
          "data_type": "bigint",
          "character_maximum_length": null,
          "numeric_precision": 19,
          "numeric_scale": 0,
          "nullable": false,
          "business_key": false
        },
        {
          "column_name": "MODIFIEDDATETIME",
          "data_type": "datetime",
          "character_maximum_length": null,
          "numeric_precision": null,
          "numeric_scale": null,
          "nullable": false,
          "business_key": false
        },
        {
          "column_name": "MODIFIEDBY",
          "data_type": "nvarchar",
          "character_maximum_length": 8,
          "numeric_precision": null,
          "numeric_scale": null,
          "nullable": false,
          "business_key": false
        },
        {
          "column_name": "RECVERSION",
          "data_type": "int",
          "character_maximum_length": null,
          "numeric_precision": 10,
          "numeric_scale": 0,
          "nullable": false,
          "business_key": false
        },
        {
          "column_name": "PARTITION",
          "data_type": "bigint",
          "character_maximum_length": null,
          "numeric_precision": 19,
          "numeric_scale": 0,
          "nullable": false,
          "business_key": false
        },
        {
          "column_name": "RECID",
          "data_type": "bigint",
          "character_maximum_length": null,
          "numeric_precision": 19,
          "numeric_scale": 0,
          "nullable": false,
          "business_key": false
        }
      ]
    },
    {
      "table_identifier": "dbo.FISCALCALENDARYEAR",
      "columns": [
        {
          "column_name": "STARTDATE",
          "data_type": "datetime",
          "character_maximum_length": null,
          "numeric_precision": null,
          "numeric_scale": null,
          "nullable": false,
          "business_key": false
        },
        {
          "column_name": "ENDDATE",
          "data_type": "datetime",
          "character_maximum_length": null,
          "numeric_precision": null,
          "numeric_scale": null,
          "nullable": false,
          "business_key": false
        },
        {
          "column_name": "FISCALCALENDAR",
          "data_type": "bigint",
          "character_maximum_length": null,
          "numeric_precision": 19,
          "numeric_scale": 0,
          "nullable": false,
          "business_key": false
        },
        {
          "column_name": "NAME",
          "data_type": "nvarchar",
          "character_maximum_length": 10,
          "numeric_precision": null,
          "numeric_scale": null,
          "nullable": false,
          "business_key": false
        },
        {
          "column_name": "MODIFIEDDATETIME",
          "data_type": "datetime",
          "character_maximum_length": null,
          "numeric_precision": null,
          "numeric_scale": null,
          "nullable": false,
          "business_key": false
        },
        {
          "column_name": "MODIFIEDBY",
          "data_type": "nvarchar",
          "character_maximum_length": 8,
          "numeric_precision": null,
          "numeric_scale": null,
          "nullable": false,
          "business_key": false
        },
        {
          "column_name": "RECVERSION",
          "data_type": "int",
          "character_maximum_length": null,
          "numeric_precision": 10,
          "numeric_scale": 0,
          "nullable": false,
          "business_key": false
        },
        {
          "column_name": "PARTITION",
          "data_type": "bigint",
          "character_maximum_length": null,
          "numeric_precision": 19,
          "numeric_scale": 0,
          "nullable": false,
          "business_key": false
        },
        {
          "column_name": "RECID",
          "data_type": "bigint",
          "character_maximum_length": null,
          "numeric_precision": 19,
          "numeric_scale": 0,
          "nullable": false,
          "business_key": false
        }
      ]
    }
  ]
}