{
  "base_name": "Consumption",
  "category": "dim",
  "database_object": {
    "table_identifier": "dim.Consumption",
    "columns": [
      {
        "column_name": "ConsumptionID",
        "data_type": "int",
        "character_maximum_length": null,
        "numeric_precision": 10,
        "numeric_scale": 0,
        "nullable": false,
        "business_key": true
      },
      {
        "column_name": "DataConnectionID",
        "data_type": "int",
        "character_maximum_length": null,
        "numeric_precision": 10,
        "numeric_scale": 0,
        "nullable": false,
        "business_key": false
      },
      {
        "column_name": "CompanyID",
        "data_type": "int",
        "character_maximum_length": null,
        "numeric_precision": 10,
        "numeric_scale": 0,
        "nullable": false,
        "business_key": false
      },
      {
        "column_name": "Partition",
        "data_type": "bigint",
        "character_maximum_length": null,
        "numeric_precision": 10,
        "numeric_scale": 0,
        "nullable": false,
        "business_key": false
      },
      {
        "column_name": "ExecutionTimestamp",
        "data_type": "timestamp",
        "character_maximum_length": null,
        "numeric_precision": null,
        "numeric_scale": null,
        "nullable": false,
        "business_key": false
      },
      {
        "column_name": "ComponentExecutionID",
        "data_type": "int",
        "character_maximum_length": null,
        "numeric_precision": 10,
        "numeric_scale": 0,
        "nullable": false,
        "business_key": false
      },
      {
        "column_name": "ConsumptionType",
        "data_type": "nvarchar",
        "character_maximum_length": 512,
        "numeric_precision": null,
        "numeric_scale": null,
        "nullable": true,
        "business_key": false
      },
      {
        "column_name": "SourceType",
        "data_type": "nvarchar",
        "character_maximum_length": 512,
        "numeric_precision": null,
        "numeric_scale": null,
        "nullable": true,
        "business_key": false
      },
      {
        "column_name": "ResourceCode",
        "data_type": "nvarchar",
        "character_maximum_length": 120,
        "numeric_precision": null,
        "numeric_scale": null,
        "nullable": true,
        "business_key": false
      },
      {
        "column_name": "ResourceDescription",
        "data_type": "nvarchar",
        "character_maximum_length": 120,
        "numeric_precision": null,
        "numeric_scale": null,
        "nullable": true,
        "business_key": false
      },
      {
        "column_name": "ResourceCodeDescription",
        "data_type": "nvarchar",
        "character_maximum_length": 255,
        "numeric_precision": null,
        "numeric_scale": null,
        "nullable": true,
        "business_key": false
      },
      {
        "column_name": "GroupCode",
        "data_type": "nvarchar",
        "character_maximum_length": 40,
        "numeric_precision": null,
        "numeric_scale": null,
        "nullable": true,
        "business_key": false
      },
      {
        "column_name": "GroupDescription",
        "data_type": "nvarchar",
        "character_maximum_length": 160,
        "numeric_precision": null,
        "numeric_scale": null,
        "nullable": true,
        "business_key": false
      },
      {
        "column_name": "GroupCodeDescription",
        "data_type": "nvarchar",
        "character_maximum_length": 255,
        "numeric_precision": null,
        "numeric_scale": null,
        "nullable": true,
        "business_key": false
      },
      {
        "column_name": "ProductGroupCode",
        "data_type": "nvarchar",
        "character_maximum_length": 40,
        "numeric_precision": null,
        "numeric_scale": null,
        "nullable": true,
        "business_key": false
      },
      {
        "column_name": "ProductGroupDescription",
        "data_type": "nvarchar",
        "character_maximum_length": 160,
        "numeric_precision": null,
        "numeric_scale": null,
        "nullable": true,
        "business_key": false
      },
      {
        "column_name": "ProductGroupCodeDescription",
        "data_type": "nvarchar",
        "character_maximum_length": 255,
        "numeric_precision": null,
        "numeric_scale": null,
        "nullable": true,
        "business_key": false
      },
      {
        "column_name": "ResourceType",
        "data_type": "nvarchar",
        "character_maximum_length": 160,
        "numeric_precision": null,
        "numeric_scale": null,
        "nullable": true,
        "business_key": false
      }
    ],
    "indexes": [
      {
        "name": "ix_c_dim_Consumption",
        "type": "Clustered",
        "columns": [
          "ResourceCode",
          "ConsumptionType",
          "CompanyID",
          "Partition",
          "DataConnectionID"
        ],
        "included_columns": [
          ""
        ],
        "fill_factor": 90,
        "is_unique": false
      }
    ]
  },
  "load_procedures": [
    {
      "sequence": 100,
      "identifier": "dim.LoadConsumption"
    }
  ],
  "views": null,
  "load_type": 1,
  "validation": null
}