{
  "connection_types": [
    {
      "category": "AX",
      "name": "AX2012R3"
    }
  ],
  "tables": [
    {
      "table_identifier": "dbo.WRKCTRTABLE",
      "columns": [
        {
          "column_name": "NAME",
          "data_type": "nvarchar",
          "character_maximum_length": 60,
          "numeric_precision": null,
          "numeric_scale": null,
          "nullable": false,
          "business_key": false
        },
        {
          "column_name": "WRKCTRTYPE",
          "data_type": "int",
          "character_maximum_length": null,
          "numeric_precision": 10,
          "numeric_scale": 0,
          "nullable": false,
          "business_key": false
        },
        {
          "column_name": "RECVERSION",
          "data_type": "int",
          "character_maximum_length": null,
          "numeric_precision": 10,
          "numeric_scale": 0,
          "nullable": false,
          "business_key": false
        },
        {
          "column_name": "RECID",
          "data_type": "bigint",
          "character_maximum_length": null,
          "numeric_precision": 19,
          "numeric_scale": 0,
          "nullable": false,
          "business_key": false
        },
        {
          "column_name": "PARTITION",
          "data_type": "bigint",
          "character_maximum_length": null,
          "numeric_precision": 10,
          "numeric_scale": 0,
          "nullable": false,
          "business_key": true
        },
        {
          "column_name": "WRKCTRID",
          "data_type": "nvarchar",
          "character_maximum_length": 10,
          "numeric_precision": null,
          "numeric_scale": null,
          "nullable": false,
          "business_key": true
        },
        {
          "column_name": "DATAAREAID",
          "data_type": "nvarchar",
          "character_maximum_length": 4,
          "numeric_precision": null,
          "numeric_scale": null,
          "nullable": false,
          "business_key": true
        }
      ],
      "indexes": []
    },
    {
      "table_identifier": "dbo.INVENTITEMGROUPITEM",
      "columns": [
        {
          "column_name": "ITEMDATAAREAID",
          "data_type": "nvarchar",
          "character_maximum_length": 4,
          "numeric_precision": null,
          "numeric_scale": null,
          "nullable": false,
          "business_key": false
        },
        {
          "column_name": "ITEMGROUPID",
          "data_type": "nvarchar",
          "character_maximum_length": 10,
          "numeric_precision": null,
          "numeric_scale": null,
          "nullable": false,
          "business_key": false
        },
        {
          "column_name": "ITEMGROUPDATAAREAID",
          "data_type": "nvarchar",
          "character_maximum_length": 4,
          "numeric_precision": null,
          "numeric_scale": null,
          "nullable": false,
          "business_key": false
        },
        {
          "column_name": "RECVERSION",
          "data_type": "int",
          "character_maximum_length": null,
          "numeric_precision": 10,
          "numeric_scale": 0,
          "nullable": false,
          "business_key": false
        },
        {
          "column_name": "PARTITION",
          "data_type": "bigint",
          "character_maximum_length": null,
          "numeric_precision": 10,
          "numeric_scale": 0,
          "nullable": false,
          "business_key": false
        },
        {
          "column_name": "RECID",
          "data_type": "bigint",
          "character_maximum_length": null,
          "numeric_precision": 19,
          "numeric_scale": 0,
          "nullable": false,
          "business_key": true
        }
      ],
      "indexes": []
    },
    {
      "table_identifier": "dbo.ECORESPRODUCTTRANSLATION",
      "columns": [
        {
          "column_name": "NAME",
          "data_type": "nvarchar",
          "character_maximum_length": 60,
          "numeric_precision": null,
          "numeric_scale": null,
          "nullable": false,
          "business_key": false
        },
        {
          "column_name": "RECVERSION",
          "data_type": "int",
          "character_maximum_length": null,
          "numeric_precision": 10,
          "numeric_scale": 0,
          "nullable": false,
          "business_key": false
        },
        {
          "column_name": "PARTITION",
          "data_type": "bigint",
          "character_maximum_length": null,
          "numeric_precision": 10,
          "numeric_scale": 0,
          "nullable": false,
          "business_key": false
        },
        {
          "column_name": "RECID",
          "data_type": "bigint",
          "character_maximum_length": null,
          "numeric_precision": 19,
          "numeric_scale": 0,
          "nullable": false,
          "business_key": true
        }
      ],
      "indexes": []
    },
    {
      "table_identifier": "dbo.ECORESPRODUCT",
      "columns": [
        {
          "column_name": "PRODUCTTYPE",
          "data_type": "int",
          "character_maximum_length": null,
          "numeric_precision": 10,
          "numeric_scale": 0,
          "nullable": false,
          "business_key": false
        },
        {
          "column_name": "RECVERSION",
          "data_type": "int",
          "character_maximum_length": null,
          "numeric_precision": 10,
          "numeric_scale": 0,
          "nullable": false,
          "business_key": false
        },
        {
          "column_name": "PARTITION",
          "data_type": "bigint",
          "character_maximum_length": null,
          "numeric_precision": 10,
          "numeric_scale": 0,
          "nullable": false,
          "business_key": false
        },
        {
          "column_name": "RECID",
          "data_type": "bigint",
          "character_maximum_length": null,
          "numeric_precision": 19,
          "numeric_scale": 0,
          "nullable": false,
          "business_key": true
        }
      ],
      "indexes": []
    },
    {
      "table_identifier": "dbo.PRODCALCTRANS",
      "columns": [
        {
          "column_name": "LINENUM",
          "data_type": "numeric",
          "character_maximum_length": null,
          "numeric_precision": 32,
          "numeric_scale": 16,
          "nullable": false,
          "business_key": true
        },
        {
          "column_name": "RESOURCE_",
          "data_type": "nvarchar",
          "character_maximum_length": 30,
          "numeric_precision": null,
          "numeric_scale": null,
          "nullable": false,
          "business_key": false
        },
        {
          "column_name": "RECVERSION",
          "data_type": "int",
          "character_maximum_length": null,
          "numeric_precision": 10,
          "numeric_scale": 0,
          "nullable": false,
          "business_key": false
        },
        {
          "column_name": "CALCTYPE",
          "data_type": "int",
          "character_maximum_length": null,
          "numeric_precision": 10,
          "numeric_scale": 0,
          "nullable": false,
          "business_key": false
        },
        {
          "column_name": "COLLECTREFPRODID",
          "data_type": "nvarchar",
          "character_maximum_length": 35,
          "numeric_precision": null,
          "numeric_scale": null,
          "nullable": false,
          "business_key": true
        },
        {
          "column_name": "COLLECTREFLEVEL",
          "data_type": "int",
          "character_maximum_length": null,
          "numeric_precision": 10,
          "numeric_scale": 0,
          "nullable": false,
          "business_key": true
        },
        {
          "column_name": "DATAAREAID",
          "data_type": "nvarchar",
          "character_maximum_length": 4,
          "numeric_precision": null,
          "numeric_scale": null,
          "nullable": false,
          "business_key": true
        },
        {
          "column_name": "PARTITION",
          "data_type": "bigint",
          "character_maximum_length": null,
          "numeric_precision": 10,
          "numeric_scale": 0,
          "nullable": false,
          "business_key": true
        },
        {
          "column_name": "RECID",
          "data_type": "bigint",
          "character_maximum_length": null,
          "numeric_precision": 19,
          "numeric_scale": 0,
          "nullable": false,
          "business_key": true
        }
      ],
      "indexes": []
    },
    {
      "table_identifier": "dbo.INVENTTABLE",
      "columns": [
        {
          "column_name": "PRODGROUPID",
          "data_type": "nvarchar",
          "character_maximum_length": 10,
          "numeric_precision": null,
          "numeric_scale": null,
          "nullable": false,
          "business_key": false
        },
        {
          "column_name": "MODIFIEDDATETIME",
          "data_type": "datetime",
          "character_maximum_length": null,
          "numeric_precision": null,
          "numeric_scale": null,
          "nullable": false,
          "business_key": false
        },
        {
          "column_name": "RECVERSION",
          "data_type": "int",
          "character_maximum_length": null,
          "numeric_precision": 10,
          "numeric_scale": 0,
          "nullable": false,
          "business_key": false
        },
        {
          "column_name": "RECID",
          "data_type": "bigint",
          "character_maximum_length": null,
          "numeric_precision": 19,
          "numeric_scale": 0,
          "nullable": false,
          "business_key": false
        },
        {
          "column_name": "PARTITION",
          "data_type": "bigint",
          "character_maximum_length": null,
          "numeric_precision": 10,
          "numeric_scale": 0,
          "nullable": false,
          "business_key": true
        },
        {
          "column_name": "DATAAREAID",
          "data_type": "nvarchar",
          "character_maximum_length": 4,
          "numeric_precision": null,
          "numeric_scale": null,
          "nullable": false,
          "business_key": true
        },
        {
          "column_name": "ITEMID",
          "data_type": "nvarchar",
          "character_maximum_length": 20,
          "numeric_precision": null,
          "numeric_scale": null,
          "nullable": false,
          "business_key": true
        }
      ],
      "indexes": []
    },
    {
      "table_identifier": "dbo.PRODGROUP",
      "columns": [
        {
          "column_name": "NAME",
          "data_type": "nvarchar",
          "character_maximum_length": 60,
          "numeric_precision": null,
          "numeric_scale": null,
          "nullable": false,
          "business_key": false
        },
        {
          "column_name": "DATAAREAID",
          "data_type": "nvarchar",
          "character_maximum_length": 4,
          "numeric_precision": null,
          "numeric_scale": null,
          "nullable": false,
          "business_key": true
        },
        {
          "column_name": "RECVERSION",
          "data_type": "int",
          "character_maximum_length": null,
          "numeric_precision": 10,
          "numeric_scale": 0,
          "nullable": false,
          "business_key": false
        },
        {
          "column_name": "RECID",
          "data_type": "bigint",
          "character_maximum_length": null,
          "numeric_precision": 19,
          "numeric_scale": 0,
          "nullable": false,
          "business_key": false
        },
        {
          "column_name": "PARTITION",
          "data_type": "bigint",
          "character_maximum_length": null,
          "numeric_precision": 10,
          "numeric_scale": 0,
          "nullable": false,
          "business_key": true
        },
        {
          "column_name": "PRODGROUPID",
          "data_type": "nvarchar",
          "character_maximum_length": 10,
          "numeric_precision": null,
          "numeric_scale": null,
          "nullable": false,
          "business_key": true
        }
      ],
      "indexes": []
    },
    {
      "table_identifier": "dbo.INVENTITEMGROUP",
      "columns": [
        {
          "column_name": "NAME",
          "data_type": "nvarchar",
          "character_maximum_length": 60,
          "numeric_precision": null,
          "numeric_scale": null,
          "nullable": false,
          "business_key": false
        },
        {
          "column_name": "MODIFIEDDATETIME",
          "data_type": "datetime",
          "character_maximum_length": null,
          "numeric_precision": null,
          "numeric_scale": null,
          "nullable": false,
          "business_key": false
        },
        {
          "column_name": "RECVERSION",
          "data_type": "int",
          "character_maximum_length": null,
          "numeric_precision": 10,
          "numeric_scale": 0,
          "nullable": false,
          "business_key": false
        },
        {
          "column_name": "RECID",
          "data_type": "bigint",
          "character_maximum_length": null,
          "numeric_precision": 19,
          "numeric_scale": 0,
          "nullable": false,
          "business_key": false
        },
        {
          "column_name": "PARTITION",
          "data_type": "bigint",
          "character_maximum_length": null,
          "numeric_precision": 10,
          "numeric_scale": 0,
          "nullable": false,
          "business_key": true
        },
        {
          "column_name": "DATAAREAID",
          "data_type": "nvarchar",
          "character_maximum_length": 4,
          "numeric_precision": null,
          "numeric_scale": null,
          "nullable": false,
          "business_key": true
        },
        {
          "column_name": "ITEMGROUPID",
          "data_type": "nvarchar",
          "character_maximum_length": 10,
          "numeric_precision": null,
          "numeric_scale": null,
          "nullable": false,
          "business_key": true
        }
      ],
      "indexes": []
    }
  ]
}