{
  "name": "UnitOfMeasure",
  "columns": [
    {
      "name": "ComponentExecutionID",
      "dataType": "int64",
      "isHidden": true,
      "sourceColumn": "ComponentExecutionID",
      "sourceProviderType": "Integer"
    },
    {
      "name": "DataConnectionID",
      "dataType": "int64",
      "isHidden": true,
      "sourceColumn": "DataConnectionID",
      "sourceProviderType": "Integer"
    },
    {
      "name": "Partition",
      "dataType": "int64",
      "isHidden": true,
      "sourceColumn": "Partition",
      "sourceProviderType": "BigInt"
    },
    {
      "name": "UnitOfMeasureClassCode",
      "dataType": "int64",
      "isHidden": true,
      "sourceColumn": "UnitOfMeasureClassCode",
      "sourceProviderType": "Integer"
    },
    {
      "name": "UnitOfMeasureClassCodeDesc",
      "dataType": "string",
      "sourceColumn": "UnitOfMeasureClassCodeDesc",
      "sourceProviderType": "WChar",
      "annotations": [
        {
          "name": "TabularEditor_TranslatedNames",
          "value": "{\"en-US\":\"Unit Of Measure Class\"}"
        }
      ]
    },
    {
      "name": "UnitOfMeasureClassDesc",
      "dataType": "string",
      "isHidden": true,
      "sourceColumn": "UnitOfMeasureClassDesc",
      "sourceProviderType": "WChar"
    },
    {
      "name": "UnitOfMeasureCode",
      "dataType": "string",
      "isHidden": true,
      "sourceColumn": "UnitOfMeasureCode",
      "sourceProviderType": "WChar"
    },
    {
      "name": "UnitOfMeasureCodeDesc",
      "dataType": "string",
      "sourceColumn": "UnitOfMeasureCodeDesc",
      "sourceProviderType": "WChar",
      "annotations": [
        {
          "name": "TabularEditor_TranslatedNames",
          "value": "{\"en-US\":\"Unit Of Measure\"}"
        }
      ]
    },
    {
      "name": "UnitOfMeasureDesc",
      "dataType": "string",
      "isHidden": true,
      "sourceColumn": "UnitOfMeasureDesc",
      "sourceProviderType": "WChar"
    },
    {
      "name": "UnitOfMeasureID",
      "dataType": "int64",
      "isHidden": true,
      "sourceColumn": "UnitOfMeasureID",
      "sourceProviderType": "Integer"
    }
  ],
  "partitions": [
    {
      "name": "UnitOfMeasure",
      "dataView": "full",
      "source": {
        "type": "query",
        "query": " SELECT [dim].[UnitOfMeasure].* FROM [dim].[UnitOfMeasure] ",
        "dataSource": "Birds"
      }
    }
  ],
  "annotations": [
    {
      "name": "_TM_ExtProp_QueryDefinition",
      "value": " SELECT [dim].[UnitOfMeasure].* FROM [dim].[UnitOfMeasure] "
    },
    {
      "name": "_TM_ExtProp_DbTableName",
      "value": "UnitOfMeasure"
    },
    {
      "name": "_TM_ExtProp_DbSchemaName",
      "value": "dim"
    },
    {
      "name": "TabularEditor_TranslatedNames",
      "value": "{\"en-US\":\"Unit Of Measure\"}"
    }
  ]
}