{
  "name": "Product",
  "columns": [
    {
      "name": "CompanyID",
      "dataType": "int64",
      "isHidden": true,
      "sourceColumn": "CompanyID",
      "sourceProviderType": "Integer"
    },
    {
      "name": "ComponentExecutionID",
      "dataType": "int64",
      "isHidden": true,
      "sourceColumn": "ComponentExecutionID",
      "sourceProviderType": "Integer"
    },
    {
      "name": "DataConnectionID",
      "dataType": "int64",
      "isHidden": true,
      "sourceColumn": "DataConnectionID",
      "sourceProviderType": "Integer"
    },
    {
      "name": "InventColor",
      "dataType": "string",
      "sourceColumn": "InventColor",
      "sourceProviderType": "WChar",
      "annotations": [
        {
          "name": "TabularEditor_TranslatedNames",
          "value": "{\"en-US\":\"Color\"}"
        }
      ]
    },
    {
      "name": "InventConfiguration",
      "dataType": "string",
      "sourceColumn": "InventConfiguration",
      "sourceProviderType": "WChar",
      "annotations": [
        {
          "name": "TabularEditor_TranslatedNames",
          "value": "{\"en-US\":\"Configuration\"}"
        }
      ]
    },
    {
      "name": "InventSize",
      "dataType": "string",
      "sourceColumn": "InventSize",
      "sourceProviderType": "WChar",
      "annotations": [
        {
          "name": "TabularEditor_TranslatedNames",
          "value": "{\"en-US\":\"Size\"}"
        }
      ]
    },
    {
      "name": "InventStyle",
      "dataType": "string",
      "sourceColumn": "InventStyle",
      "sourceProviderType": "WChar",
      "annotations": [
        {
          "name": "TabularEditor_TranslatedNames",
          "value": "{\"en-US\":\"Style\"}"
        }
      ]
    },
    {
      "name": "Partition",
      "dataType": "int64",
      "isHidden": true,
      "sourceColumn": "Partition",
      "sourceProviderType": "BigInt"
    },
    {
      "name": "ProductID",
      "dataType": "int64",
      "isHidden": true,
      "sourceColumn": "ProductID",
      "sourceProviderType": "Integer"
    }
  ],
  "partitions": [
    {
      "name": "Product",
      "dataView": "full",
      "source": {
        "type": "query",
        "query": " SELECT [dim].[Product].* FROM [dim].[Product] ",
        "dataSource": "Birds"
      }
    }
  ],
  "annotations": [
    {
      "name": "_TM_ExtProp_QueryDefinition",
      "value": " SELECT [dim].[Product].* FROM [dim].[Product] "
    },
    {
      "name": "_TM_ExtProp_DbTableName",
      "value": "Product"
    },
    {
      "name": "_TM_ExtProp_DbSchemaName",
      "value": "dim"
    },
    {
      "name": "TabularEditor_TranslatedNames",
      "value": "{\"en-US\":\"Product\"}"
    }
  ]
}