{
  "name": "DeliveredWithoutPackingSlipQuantity_SI",
  "description": "Sum of Deliverd Without Packingslip Quantity",
  "expression": [
    "SUM ( 'factSalesInvoice'[DeliveredWithoutPackingSlipQuantity] )",
    "",
    ""
  ],
  "formatString": "#,##0",
  "annotations": [
    {
      "name": "TabularEditor_TranslatedNames",
      "value": "{\"en-US\":\"Delivered Without Packingslip Quantity\"}"
    }
  ]
}