{
  "name": "NetAmountYTDIndex_SI",
  "description": "Index of Net Amount YTD divided by Net Amount LYTD",
  "expression": [
    "DIVIDE ( [NetAmountYTD_SI], [NetAmountLYTD_SI] ) * 100",
    "",
    ""
  ],
  "formatString": "#,##0",
  "displayFolder": "Σ YTD",
  "annotations": [
    {
      "name": "TabularEditor_TranslatedNames",
      "value": "{\"en-US\":\"Net Amount YTD Index\"}"
    },
    {
      "name": "TabularEditor_TranslatedDisplayFolders",
      "value": "{\"en-US\":\"Σ YTD\"}"
    }
  ]
}