{
  "name": "SalesPrice_SI",
  "description": "Sum of sales price.",
  "expression": [
    "SUM ( 'factSalesInvoice'[SalesPrice] )",
    "",
    ""
  ],
  "formatString": "#,##0.00",
  "isHidden": true,
  "annotations": [
    {
      "name": "TabularEditor_TranslatedNames",
      "value": "{\"en-US\":\"Sales Price\"}"
    }
  ]
}