{
  "name": "PostingType",
  "columns": [
    {
      "name": "ComponentExecutionID",
      "dataType": "int64",
      "isHidden": true,
      "sourceColumn": "ComponentExecutionID",
      "sourceProviderType": "Integer"
    },
    {
      "name": "DataConnectionID",
      "dataType": "int64",
      "isHidden": true,
      "sourceColumn": "DataConnectionID",
      "sourceProviderType": "Integer"
    },
    {
      "name": "PostingTypeCode",
      "dataType": "int64",
      "isHidden": true,
      "sourceColumn": "PostingTypeCode",
      "sourceProviderType": "Integer"
    },
    {
      "name": "PostingTypeDesc",
      "dataType": "string",
      "sourceColumn": "PostingTypeDesc",
      "sourceProviderType": "WChar",
      "annotations": [
        {
          "name": "TabularEditor_TranslatedNames",
          "value": "{\"en-US\":\"Posting Type\"}"
        }
      ]
    },
    {
      "name": "PostingTypeID",
      "dataType": "int64",
      "isHidden": true,
      "sourceColumn": "PostingTypeID",
      "sourceProviderType": "Integer"
    }
  ],
  "partitions": [
    {
      "name": "PostingType",
      "dataView": "full",
      "source": {
        "type": "query",
        "query": " SELECT [dim].[PostingType].* FROM [dim].[PostingType] ",
        "dataSource": "Birds"
      }
    }
  ],
  "annotations": [
    {
      "name": "_TM_ExtProp_QueryDefinition",
      "value": " SELECT [dim].[PostingType].* FROM [dim].[PostingType] "
    },
    {
      "name": "_TM_ExtProp_DbTableName",
      "value": "PostingType"
    },
    {
      "name": "_TM_ExtProp_DbSchemaName",
      "value": "dim"
    },
    {
      "name": "TabularEditor_TranslatedNames",
      "value": "{\"en-US\":\"Posting Type\"}"
    }
  ]
}