{
  "name": "factSalesMarkup",
  "isHidden": true,
  "columns": [
    {
      "name": "CompanyID",
      "dataType": "int64",
      "isHidden": true,
      "sourceColumn": "CompanyID",
      "sourceProviderType": "Integer"
    },
    {
      "name": "ComponentExecutionID",
      "dataType": "int64",
      "isHidden": true,
      "sourceColumn": "ComponentExecutionID",
      "sourceProviderType": "Integer"
    },
    {
      "name": "CurrencyReportID",
      "dataType": "int64",
      "isHidden": true,
      "sourceColumn": "CurrencyReportID"
    },
    {
      "name": "CurrencyTransactionID",
      "dataType": "int64",
      "isHidden": true,
      "sourceColumn": "CurrencyTransactionID"
    },
    {
      "name": "CustomerAccountID",
      "dataType": "int64",
      "isHidden": true,
      "sourceColumn": "CustomerAccountID",
      "sourceProviderType": "Integer"
    },
    {
      "name": "DataConnectionID",
      "dataType": "int64",
      "isHidden": true,
      "sourceColumn": "DataConnectionID",
      "sourceProviderType": "Integer"
    },
    {
      "name": "DeliveryAddressID",
      "dataType": "int64",
      "isHidden": true,
      "sourceColumn": "DeliveryAddressID",
      "sourceProviderType": "Integer"
    },
    {
      "name": "DeliveryDateID",
      "dataType": "int64",
      "isHidden": true,
      "sourceColumn": "DeliveryDateID"
    },
    {
      "name": "DeliveryTermID",
      "dataType": "int64",
      "isHidden": true,
      "sourceColumn": "DeliveryTermID",
      "sourceProviderType": "Integer"
    },
    {
      "name": "DocumentDateID",
      "dataType": "int64",
      "isHidden": true,
      "sourceColumn": "DocumentDateID",
      "sourceProviderType": "Integer"
    },
    {
      "name": "InvoiceAccountID",
      "dataType": "int64",
      "isHidden": true,
      "sourceColumn": "InvoiceAccountID",
      "sourceProviderType": "Integer"
    },
    {
      "name": "InvoiceAddressID",
      "dataType": "int64",
      "isHidden": true,
      "sourceColumn": "InvoiceAddressID",
      "sourceProviderType": "Integer"
    },
    {
      "name": "VoucherID",
      "dataType": "int64",
      "isHidden": true,
      "sourceColumn": "VoucherID",
      "annotations": [
        {
          "name": "TabularEditor_TranslatedNames",
          "value": "{\"en-US\":\"VoucherID\"}"
        }
      ]
    },
    {
      "name": "MarkUpCalculatedAmount",
      "dataType": "decimal",
      "isHidden": true,
      "sourceColumn": "MarkUpCalculatedAmount",
      "sourceProviderType": "Numeric"
    },
    {
      "name": "MarkUpCalculatedAmount_RCY",
      "dataType": "decimal",
      "isHidden": true,
      "sourceColumn": "MarkUpCalculatedAmount_RCY"
    },
    {
      "name": "MarkUpPostedAmount",
      "dataType": "decimal",
      "isHidden": true,
      "sourceColumn": "MarkUpPostedAmount",
      "sourceProviderType": "Numeric"
    },
    {
      "name": "MarkUpPostedAmount_RCY",
      "dataType": "decimal",
      "isHidden": true,
      "sourceColumn": "MarkUpPostedAmount_RCY"
    },
    {
      "name": "MarkupTaxAmount",
      "dataType": "decimal",
      "isHidden": true,
      "sourceColumn": "MarkupTaxAmount",
      "sourceProviderType": "Numeric"
    },
    {
      "name": "MarkupTaxAmount_RCY",
      "dataType": "decimal",
      "isHidden": true,
      "sourceColumn": "MarkupTaxAmount_RCY"
    },
    {
      "name": "MarkupTypeID",
      "dataType": "int64",
      "isHidden": true,
      "sourceColumn": "MarkupTypeID",
      "sourceProviderType": "Integer"
    },
    {
      "name": "MethodOfPaymentID",
      "dataType": "int64",
      "isHidden": true,
      "sourceColumn": "MethodOfPaymentID",
      "sourceProviderType": "Integer"
    },
    {
      "name": "ModeOfDeliveryID",
      "dataType": "int64",
      "isHidden": true,
      "sourceColumn": "ModeOfDeliveryID",
      "sourceProviderType": "Integer"
    },
    {
      "name": "PaymentTermsID",
      "dataType": "int64",
      "isHidden": true,
      "sourceColumn": "PaymentTermsID",
      "sourceProviderType": "Integer"
    },
    {
      "name": "ReceiptConfirmedDateID",
      "dataType": "int64",
      "isHidden": true,
      "sourceColumn": "ReceiptConfirmedDateID",
      "sourceProviderType": "Integer"
    },
    {
      "name": "ReceiptRequestedDateID",
      "dataType": "int64",
      "isHidden": true,
      "sourceColumn": "ReceiptRequestedDateID",
      "sourceProviderType": "Integer"
    },
    {
      "name": "SalesGroupID",
      "dataType": "int64",
      "isHidden": true,
      "sourceColumn": "SalesGroupID",
      "sourceProviderType": "Integer"
    },
    {
      "name": "SalesInvoiceID",
      "dataType": "int64",
      "isHidden": true,
      "sourceColumn": "SalesInvoiceID",
      "sourceProviderType": "Integer"
    },
    {
      "name": "SalesMarkupOriginID",
      "dataType": "int64",
      "isHidden": true,
      "sourceColumn": "SalesMarkupOriginID",
      "sourceProviderType": "Integer"
    },
    {
      "name": "SalesMarkupPartition",
      "dataType": "int64",
      "isHidden": true,
      "sourceColumn": "SalesMarkupPartition",
      "sourceProviderType": "BigInt"
    },
    {
      "name": "SalesMarkupRecID",
      "dataType": "int64",
      "isHidden": true,
      "sourceColumn": "SalesMarkupRecID",
      "sourceProviderType": "BigInt"
    },
    {
      "name": "SalesOrderID",
      "dataType": "int64",
      "isHidden": true,
      "sourceColumn": "SalesOrderID",
      "sourceProviderType": "Integer"
    },
    {
      "name": "SalesOrderTypeID",
      "dataType": "int64",
      "isHidden": true,
      "sourceColumn": "SalesOrderTypeID",
      "sourceProviderType": "Integer"
    },
    {
      "name": "SalesOriginID",
      "dataType": "int64",
      "isHidden": true,
      "sourceColumn": "SalesOriginID",
      "sourceProviderType": "Integer"
    },
    {
      "name": "SalesPackingSlipID",
      "dataType": "int64",
      "isHidden": true,
      "sourceColumn": "SalesPackingSlipID",
      "sourceProviderType": "Integer"
    },
    {
      "name": "SalesPoolID",
      "dataType": "int64",
      "isHidden": true,
      "sourceColumn": "SalesPoolID",
      "sourceProviderType": "Integer"
    },
    {
      "name": "SalesResponsibleID",
      "dataType": "int64",
      "isHidden": true,
      "sourceColumn": "SalesResponsibleID",
      "sourceProviderType": "Integer"
    },
    {
      "name": "SalesTakerID",
      "dataType": "int64",
      "isHidden": true,
      "sourceColumn": "SalesTakerID",
      "sourceProviderType": "Integer"
    },
    {
      "name": "ShippingConfirmedDateID",
      "dataType": "int64",
      "isHidden": true,
      "sourceColumn": "ShippingConfirmedDateID",
      "sourceProviderType": "Integer"
    },
    {
      "name": "ShippingRequestedDateID",
      "dataType": "int64",
      "isHidden": true,
      "sourceColumn": "ShippingRequestedDateID",
      "sourceProviderType": "Integer"
    },
    {
      "name": "StageId",
      "dataType": "int64",
      "isHidden": true,
      "sourceColumn": "StageId",
      "sourceProviderType": "BigInt"
    },
    {
      "name": "TransactionDateID",
      "dataType": "int64",
      "isHidden": true,
      "sourceColumn": "TransactionDateID",
      "sourceProviderType": "Integer"
    }
  ],
  "partitions": [
    {
      "name": "SalesMarkup",
      "dataView": "full",
      "source": {
        "type": "query",
        "query": "SELECT [fact].[SalesMarkup].* FROM [fact].[SalesMarkup]",
        "dataSource": "Birds"
      },
      "annotations": [
        {
          "name": "QueryEditorSerialization",
          "value": "<?xml version=\"1.0\" encoding=\"UTF-16\"?><Gemini xmlns=\"QueryEditorSerialization\"><AnnotationContent><![CDATA[<RSQueryCommandText>SELECT [fact].[SalesMarkup].* FROM [fact].[SalesMarkup]</RSQueryCommandText><RSQueryCommandType>Text</RSQueryCommandType><RSQueryDesignState></RSQueryDesignState>]]></AnnotationContent></Gemini>"
        }
      ]
    }
  ],
  "annotations": [
    {
      "name": "_TM_ExtProp_QueryDefinition",
      "value": "SELECT [fact].[SalesMarkup].* FROM [fact].[SalesMarkup]"
    },
    {
      "name": "_TM_ExtProp_DbTableName",
      "value": "SalesMarkup"
    },
    {
      "name": "_TM_ExtProp_DbSchemaName",
      "value": "fact"
    },
    {
      "name": "QueryEditorSerialization",
      "value": "<?xml version=\"1.0\" encoding=\"UTF-16\"?><Gemini xmlns=\"QueryEditorSerialization\"><AnnotationContent><![CDATA[<RSQueryCommandText>SELECT [fact].[SalesMarkup].* FROM [fact].[SalesMarkup]</RSQueryCommandText><RSQueryCommandType>Text</RSQueryCommandType><RSQueryDesignState></RSQueryDesignState>]]></AnnotationContent></Gemini>"
    },
    {
      "name": "TabularEditor_TranslatedNames",
      "value": "{\"en-US\":\"Σ Sales Markup\"}"
    }
  ]
}