{
  "name": "EndedDate",
  "dataCategory": "Time",
  "columns": [
    {
      "type": "calculatedTableColumn",
      "name": "DateID",
      "dataType": "int64",
      "isNameInferred": true,
      "isDataTypeInferred": true,
      "isHidden": true,
      "sourceColumn": "Date[DateID]"
    },
    {
      "type": "calculatedTableColumn",
      "name": "ExecutionTimestamp",
      "dataType": "string",
      "isNameInferred": true,
      "isDataTypeInferred": true,
      "isHidden": true,
      "sourceColumn": "Date[ExecutionTimestamp]"
    },
    {
      "type": "calculatedTableColumn",
      "name": "ComponentExecutionId",
      "dataType": "int64",
      "isNameInferred": true,
      "isDataTypeInferred": true,
      "isHidden": true,
      "sourceColumn": "Date[ComponentExecutionId]"
    },
    {
      "type": "calculatedTableColumn",
      "name": "Date",
      "dataType": "dateTime",
      "isNameInferred": true,
      "isDataTypeInferred": true,
      "isUnique": true,
      "isKey": true,
      "sourceColumn": "Date[Date]",
      "formatString": "General Date",
      "annotations": [
        {
          "name": "TabularEditor_TranslatedNames",
          "value": "{\"en-US\":\"Date\"}"
        }
      ]
    },
    {
      "type": "calculatedTableColumn",
      "name": "FullDescription",
      "dataType": "string",
      "isNameInferred": true,
      "isDataTypeInferred": true,
      "isHidden": true,
      "sourceColumn": "Date[FullDescription]"
    },
    {
      "type": "calculatedTableColumn",
      "name": "DescYMD",
      "dataType": "string",
      "isNameInferred": true,
      "isDataTypeInferred": true,
      "isHidden": true,
      "sourceColumn": "Date[DescYMD]"
    },
    {
      "type": "calculatedTableColumn",
      "name": "DescDMY",
      "dataType": "string",
      "isNameInferred": true,
      "isDataTypeInferred": true,
      "isHidden": true,
      "sourceColumn": "Date[DescDMY]"
    },
    {
      "type": "calculatedTableColumn",
      "name": "DescMDY",
      "dataType": "string",
      "isNameInferred": true,
      "isDataTypeInferred": true,
      "isHidden": true,
      "sourceColumn": "Date[DescMDY]"
    },
    {
      "type": "calculatedTableColumn",
      "name": "DescYYYYMMDD",
      "dataType": "string",
      "isNameInferred": true,
      "isDataTypeInferred": true,
      "isHidden": true,
      "sourceColumn": "Date[DescYYYYMMDD]"
    },
    {
      "type": "calculatedTableColumn",
      "name": "DescDDMMYYYY",
      "dataType": "string",
      "isNameInferred": true,
      "isDataTypeInferred": true,
      "isHidden": true,
      "sourceColumn": "Date[DescDDMMYYYY]"
    },
    {
      "type": "calculatedTableColumn",
      "name": "DescMMDDYYYY",
      "dataType": "string",
      "isNameInferred": true,
      "isDataTypeInferred": true,
      "isHidden": true,
      "sourceColumn": "Date[DescMMDDYYYY]"
    },
    {
      "type": "calculatedTableColumn",
      "name": "CYearNo",
      "dataType": "int64",
      "isNameInferred": true,
      "isDataTypeInferred": true,
      "isHidden": true,
      "sourceColumn": "Date[CYearNo]"
    },
    {
      "type": "calculatedTableColumn",
      "name": "CQuarterNo",
      "dataType": "int64",
      "isNameInferred": true,
      "isDataTypeInferred": true,
      "isHidden": true,
      "sourceColumn": "Date[CQuarterNo]"
    },
    {
      "type": "calculatedTableColumn",
      "name": "CMonthNo",
      "dataType": "int64",
      "isNameInferred": true,
      "isDataTypeInferred": true,
      "isHidden": true,
      "sourceColumn": "Date[CMonthNo]"
    },
    {
      "type": "calculatedTableColumn",
      "name": "CWeekNo",
      "dataType": "int64",
      "isNameInferred": true,
      "isDataTypeInferred": true,
      "isHidden": true,
      "sourceColumn": "Date[CWeekNo]"
    },
    {
      "type": "calculatedTableColumn",
      "name": "CYearMonthNo",
      "dataType": "int64",
      "isNameInferred": true,
      "isDataTypeInferred": true,
      "isHidden": true,
      "sourceColumn": "Date[CYearMonthNo]"
    },
    {
      "type": "calculatedTableColumn",
      "name": "CYearQuarterNo",
      "dataType": "int64",
      "isNameInferred": true,
      "isDataTypeInferred": true,
      "isHidden": true,
      "sourceColumn": "Date[CYearQuarterNo]"
    },
    {
      "type": "calculatedTableColumn",
      "name": "CDayInMonthNo",
      "dataType": "int64",
      "isNameInferred": true,
      "isDataTypeInferred": true,
      "isHidden": true,
      "sourceColumn": "Date[CDayInMonthNo]"
    },
    {
      "type": "calculatedTableColumn",
      "name": "CDayWeekNo",
      "dataType": "int64",
      "isNameInferred": true,
      "isDataTypeInferred": true,
      "isHidden": true,
      "sourceColumn": "Date[CDayWeekNo]"
    },
    {
      "type": "calculatedTableColumn",
      "name": "CDayYearNo",
      "dataType": "int64",
      "isNameInferred": true,
      "isDataTypeInferred": true,
      "isHidden": true,
      "sourceColumn": "Date[CDayYearNo]"
    },
    {
      "type": "calculatedTableColumn",
      "name": "CYearWeekNo",
      "dataType": "int64",
      "isNameInferred": true,
      "isDataTypeInferred": true,
      "isHidden": true,
      "sourceColumn": "Date[CYearWeekNo]"
    },
    {
      "type": "calculatedTableColumn",
      "name": "CHalfYearNo",
      "dataType": "int64",
      "isNameInferred": true,
      "isDataTypeInferred": true,
      "isHidden": true,
      "sourceColumn": "Date[CHalfYearNo]"
    },
    {
      "type": "calculatedTableColumn",
      "name": "CYearDesc",
      "dataType": "string",
      "isNameInferred": true,
      "isDataTypeInferred": true,
      "sourceColumn": "Date[CYearDesc]",
      "sortByColumn": "CYearNo",
      "annotations": [
        {
          "name": "TabularEditor_TranslatedNames",
          "value": "{\"en-US\":\"Year\"}"
        }
      ]
    },
    {
      "type": "calculatedTableColumn",
      "name": "CMonthDesc",
      "dataType": "string",
      "isNameInferred": true,
      "isDataTypeInferred": true,
      "sourceColumn": "Date[CMonthDesc]",
      "sortByColumn": "CMonthNo",
      "annotations": [
        {
          "name": "TabularEditor_TranslatedNames",
          "value": "{\"en-US\":\"Month\"}"
        }
      ]
    },
    {
      "type": "calculatedTableColumn",
      "name": "CQuarterDesc",
      "dataType": "string",
      "isNameInferred": true,
      "isDataTypeInferred": true,
      "sourceColumn": "Date[CQuarterDesc]",
      "sortByColumn": "CQuarterNo",
      "annotations": [
        {
          "name": "TabularEditor_TranslatedNames",
          "value": "{\"en-US\":\"Quarter\"}"
        }
      ]
    },
    {
      "type": "calculatedTableColumn",
      "name": "CWeekDesc",
      "dataType": "string",
      "isNameInferred": true,
      "isDataTypeInferred": true,
      "sourceColumn": "Date[CWeekDesc]",
      "sortByColumn": "CWeekNo",
      "annotations": [
        {
          "name": "TabularEditor_TranslatedNames",
          "value": "{\"en-US\":\"Week\"}"
        }
      ]
    },
    {
      "type": "calculatedTableColumn",
      "name": "CYearMonthDesc",
      "dataType": "string",
      "isNameInferred": true,
      "isDataTypeInferred": true,
      "sourceColumn": "Date[CYearMonthDesc]",
      "sortByColumn": "CYearMonthNo",
      "annotations": [
        {
          "name": "TabularEditor_TranslatedNames",
          "value": "{\"en-US\":\"Year Month\"}"
        }
      ]
    },
    {
      "type": "calculatedTableColumn",
      "name": "CYearQuarterDesc",
      "dataType": "string",
      "isNameInferred": true,
      "isDataTypeInferred": true,
      "isHidden": true,
      "sourceColumn": "Date[CYearQuarterDesc]"
    },
    {
      "type": "calculatedTableColumn",
      "name": "CMonthYearDesc",
      "dataType": "string",
      "isNameInferred": true,
      "isDataTypeInferred": true,
      "isHidden": true,
      "sourceColumn": "Date[CMonthYearDesc]"
    },
    {
      "type": "calculatedTableColumn",
      "name": "CQuarterYearDesc",
      "dataType": "string",
      "isNameInferred": true,
      "isDataTypeInferred": true,
      "isHidden": true,
      "sourceColumn": "Date[CQuarterYearDesc]"
    },
    {
      "type": "calculatedTableColumn",
      "name": "CYearWeekDesc",
      "dataType": "string",
      "isNameInferred": true,
      "isDataTypeInferred": true,
      "isHidden": true,
      "sourceColumn": "Date[CYearWeekDesc]"
    },
    {
      "type": "calculatedTableColumn",
      "name": "CWeekYearDesc",
      "dataType": "string",
      "isNameInferred": true,
      "isDataTypeInferred": true,
      "isHidden": true,
      "sourceColumn": "Date[CWeekYearDesc]"
    },
    {
      "type": "calculatedTableColumn",
      "name": "CDayDesc",
      "dataType": "string",
      "isNameInferred": true,
      "isDataTypeInferred": true,
      "sourceColumn": "Date[CDayDesc]",
      "annotations": [
        {
          "name": "TabularEditor_TranslatedNames",
          "value": "{\"en-US\":\"Day in Month\"}"
        }
      ]
    },
    {
      "type": "calculatedTableColumn",
      "name": "CHalfYearDesc",
      "dataType": "string",
      "isNameInferred": true,
      "isDataTypeInferred": true,
      "isHidden": true,
      "sourceColumn": "Date[CHalfYearDesc]"
    },
    {
      "type": "calculatedTableColumn",
      "name": "CFirstDayMonthDate",
      "dataType": "dateTime",
      "isNameInferred": true,
      "isDataTypeInferred": true,
      "isHidden": true,
      "sourceColumn": "Date[CFirstDayMonthDate]"
    },
    {
      "type": "calculatedTableColumn",
      "name": "CLastDayMonthDate",
      "dataType": "dateTime",
      "isNameInferred": true,
      "isDataTypeInferred": true,
      "isHidden": true,
      "sourceColumn": "Date[CLastDayMonthDate]"
    },
    {
      "type": "calculatedTableColumn",
      "name": "CNumberOfDaysInMonth",
      "dataType": "int64",
      "isNameInferred": true,
      "isDataTypeInferred": true,
      "isHidden": true,
      "sourceColumn": "Date[CNumberOfDaysInMonth]"
    },
    {
      "type": "calculatedTableColumn",
      "name": "CEndMonth",
      "dataType": "int64",
      "isNameInferred": true,
      "isDataTypeInferred": true,
      "isHidden": true,
      "sourceColumn": "Date[CEndMonth]"
    },
    {
      "type": "calculatedTableColumn",
      "name": "CStartMonth",
      "dataType": "int64",
      "isNameInferred": true,
      "isDataTypeInferred": true,
      "isHidden": true,
      "sourceColumn": "Date[CStartMonth]"
    },
    {
      "type": "calculatedTableColumn",
      "name": "Past",
      "dataType": "int64",
      "isNameInferred": true,
      "isDataTypeInferred": true,
      "isHidden": true,
      "sourceColumn": "Date[Past]"
    },
    {
      "type": "calculatedTableColumn",
      "name": "DateNo",
      "dataType": "int64",
      "isNameInferred": true,
      "isDataTypeInferred": true,
      "isHidden": true,
      "sourceColumn": "Date[DateNo]"
    },
    {
      "type": "calculatedTableColumn",
      "name": "CMonthNoDesc",
      "dataType": "string",
      "isNameInferred": true,
      "isDataTypeInferred": true,
      "isHidden": true,
      "sourceColumn": "Date[CMonthNoDesc]"
    },
    {
      "type": "calculatedTableColumn",
      "name": "CDayWeekDesc",
      "dataType": "string",
      "isNameInferred": true,
      "isDataTypeInferred": true,
      "isHidden": true,
      "sourceColumn": "Date[CDayWeekDesc]"
    },
    {
      "type": "calculatedTableColumn",
      "name": "CDayInMonthDesc",
      "dataType": "string",
      "isNameInferred": true,
      "isDataTypeInferred": true,
      "isHidden": true,
      "sourceColumn": "Date[CDayInMonthDesc]"
    },
    {
      "type": "calculatedTableColumn",
      "name": "TDatePY",
      "dataType": "dateTime",
      "isNameInferred": true,
      "isDataTypeInferred": true,
      "isHidden": true,
      "sourceColumn": "Date[TDatePY]"
    },
    {
      "type": "calculatedTableColumn",
      "name": "TYearMonthNo",
      "dataType": "int64",
      "isNameInferred": true,
      "isDataTypeInferred": true,
      "isHidden": true,
      "sourceColumn": "Date[TYearMonthNo]"
    },
    {
      "type": "calculatedTableColumn",
      "name": "TMonthDays",
      "dataType": "int64",
      "isNameInferred": true,
      "isDataTypeInferred": true,
      "isHidden": true,
      "sourceColumn": "Date[TMonthDays]"
    },
    {
      "type": "calculatedTableColumn",
      "name": "CIsoYearNo",
      "dataType": "int64",
      "isNameInferred": true,
      "isDataTypeInferred": true,
      "isHidden": true,
      "sourceColumn": "Date[CIsoYearNo]"
    },
    {
      "type": "calculatedTableColumn",
      "name": "CIsoYearDesc",
      "dataType": "string",
      "isNameInferred": true,
      "isDataTypeInferred": true,
      "description": "ISO Year for use in combination with Week",
      "sourceColumn": "Date[CIsoYearDesc]",
      "annotations": [
        {
          "name": "TabularEditor_TranslatedNames",
          "value": "{\"en-US\":\"ISO Year\"}"
        }
      ]
    }
  ],
  "partitions": [
    {
      "name": "Calculated Table",
      "source": {
        "type": "calculated",
        "expression": [
          "ALL ( 'Date' )",
          "",
          ""
        ]
      }
    }
  ],
  "annotations": [
    {
      "name": "TabularEditor_TranslatedNames",
      "value": "{\"en-US\":\"Ended Date\"}"
    }
  ]
}