{
  "name": "AmountBalance_GLB",
  "description": "Sum of all amounts marked as Balance within the current year up to the last selected date. IsCredit dimension can be used to split to debit/credit..",
  "expression": [
    "VAR YTD0 =",
    "    FILTER (",
    "        ALL ( 'Date' ),",
    "        'Date'[CYearNo] = MAX ( 'Date'[CYearNo] )",
    "            && 'Date'[DateID] <= MAX ( 'Date'[DateID] )",
    "    )",
    "RETURN",
    "    CALCULATE (",
    "        SUMX (",
    "        FILTER (",
    "            'factGeneralLedgerBudget',",
    "            'factGeneralLedgerBudget'[IsCredit] >= [IsCreditMinCode]",
    "                && 'factGeneralLedgerBudget'[IsCredit] <= [IsCreditMaxCode]",
    "        ),",
    "            IF (",
    "                'factGeneralLedgerBudget'[Balance] = 1,",
    "                'factGeneralLedgerBudget'[TransactionAmount_RCY]",
    "            )",
    "        ),",
    "        YTD0",
    "    )",
    "",
    ""
  ],
  "formatString": "#,##0.00",
  "annotations": [
    {
      "name": "TabularEditor_TranslatedNames",
      "value": "{\"en-US\":\"Budget Amount Balance\"}"
    }
  ]
}