{
  "name": "NetChangeIndexYTD_GLB",
  "description": "Percentage of sum of Budget Net Change YTD divided by Budget Net Change LYTD.",
  "expression": [
    "DIVIDE ( [NetChangeYTD_GLB], [NetChangeLYTD_GLB] ) * 100",
    "",
    "",
    ""
  ],
  "formatString": "#,##0",
  "displayFolder": "Σ YTD",
  "annotations": [
    {
      "name": "TabularEditor_TranslatedNames",
      "value": "{\"en-US\":\"Net Change Index YTD\"}"
    },
    {
      "name": "TabularEditor_TranslatedDisplayFolders",
      "value": "{\"en-US\":\"Σ YTD\"}"
    }
  ]
}