{
  "name": "NetChangeYTD_GLB",
  "description": "Sum of Budget Net Change YTD, for all dates in current year up to current date. IsCredit dimension can be used to split to debit/credit.",
  "expression": [
    "VAR YTD0 =",
    "    FILTER (",
    "        ALL ( 'Date' ),",
    "        'Date'[CYearNo] = MAX ( 'Date'[CYearNo] )",
    "            && 'Date'[DateID] <= MAX ( 'Date'[DateID] )",
    "    )",
    "RETURN",
    "    CALCULATE ( [NetChange_GLB], YTD0 )",
    "",
    ""
  ],
  "formatString": "#,##0.00",
  "displayFolder": "Σ YTD",
  "annotations": [
    {
      "name": "TabularEditor_TranslatedNames",
      "value": "{\"en-US\":\"Net Change YTD\"}"
    },
    {
      "name": "TabularEditor_TranslatedDisplayFolders",
      "value": "{\"en-US\":\"Σ YTD\"}"
    }
  ]
}