{
  "name": "NetChange_GLB",
  "description": "Sum of Budget Amount. IsCredit dimension can be used to split to debit/credit.",
  "expression": [
    "[Amount_GLB]",
    "",
    ""
  ],
  "formatString": "#,##0.00",
  "annotations": [
    {
      "name": "TabularEditor_TranslatedNames",
      "value": "{\"en-US\":\"Budget Net Change\"}"
    }
  ]
}