{
  "connection_types": [
    {
      "category": "AX",
      "name": "AX2012R3"
    }
  ],
  "tables": [
    {
      "table_identifier": "dbo.PURCHTABLE",
      "columns": [
        {
          "column_name": "ORDERACCOUNT",
          "data_type": "nvarchar",
          "character_maximum_length": 20,
          "numeric_precision": null,
          "numeric_scale": null,
          "nullable": false,
          "business_key": false
        },
        {
          "column_name": "INVOICEACCOUNT",
          "data_type": "nvarchar",
          "character_maximum_length": 20,
          "numeric_precision": null,
          "numeric_scale": null,
          "nullable": false,
          "business_key": false
        },
        {
          "column_name": "DELIVERYDATE",
          "data_type": "datetime",
          "character_maximum_length": null,
          "numeric_precision": null,
          "numeric_scale": null,
          "nullable": false,
          "business_key": false
        },
        {
          "column_name": "PAYMENT",
          "data_type": "nvarchar",
          "character_maximum_length": 10,
          "numeric_precision": null,
          "numeric_scale": null,
          "nullable": false,
          "business_key": false
        },
        {
          "column_name": "DLVTERM",
          "data_type": "nvarchar",
          "character_maximum_length": 10,
          "numeric_precision": null,
          "numeric_scale": null,
          "nullable": false,
          "business_key": false
        },
        {
          "column_name": "DLVMODE",
          "data_type": "nvarchar",
          "character_maximum_length": 10,
          "numeric_precision": null,
          "numeric_scale": null,
          "nullable": false,
          "business_key": false
        },
        {
          "column_name": "PURCHASETYPE",
          "data_type": "int",
          "character_maximum_length": null,
          "numeric_precision": 10,
          "numeric_scale": 0,
          "nullable": false,
          "business_key": false
        },
        {
          "column_name": "ITEMBUYERGROUPID",
          "data_type": "nvarchar",
          "character_maximum_length": 10,
          "numeric_precision": null,
          "numeric_scale": null,
          "nullable": false,
          "business_key": false
        },
        {
          "column_name": "PURCHPOOLID",
          "data_type": "nvarchar",
          "character_maximum_length": 10,
          "numeric_precision": null,
          "numeric_scale": null,
          "nullable": false,
          "business_key": false
        },
        {
          "column_name": "PAYMMODE",
          "data_type": "nvarchar",
          "character_maximum_length": 10,
          "numeric_precision": null,
          "numeric_scale": null,
          "nullable": false,
          "business_key": false
        },
        {
          "column_name": "WORKERPURCHPLACER",
          "data_type": "bigint",
          "character_maximum_length": null,
          "numeric_precision": 19,
          "numeric_scale": 0,
          "nullable": false,
          "business_key": false
        },
        {
          "column_name": "DELIVERYPOSTALADDRESS",
          "data_type": "bigint",
          "character_maximum_length": null,
          "numeric_precision": 19,
          "numeric_scale": 0,
          "nullable": false,
          "business_key": false
        },
        {
          "column_name": "RECVERSION",
          "data_type": "int",
          "character_maximum_length": null,
          "numeric_precision": 10,
          "numeric_scale": 0,
          "nullable": false,
          "business_key": false
        },
        {
          "column_name": "RECID",
          "data_type": "bigint",
          "character_maximum_length": null,
          "numeric_precision": 19,
          "numeric_scale": 0,
          "nullable": false,
          "business_key": false
        },
        {
          "column_name": "REQUESTER",
          "data_type": "bigint",
          "character_maximum_length": null,
          "numeric_precision": 19,
          "numeric_scale": 0,
          "nullable": false,
          "business_key": false
        },
        {
          "column_name": "DATAAREAID",
          "data_type": "nvarchar",
          "character_maximum_length": 4,
          "numeric_precision": null,
          "numeric_scale": null,
          "nullable": false,
          "business_key": true
        },
        {
          "column_name": "PARTITION",
          "data_type": "bigint",
          "character_maximum_length": null,
          "numeric_precision": 10,
          "numeric_scale": 0,
          "nullable": false,
          "business_key": true
        },
        {
          "column_name": "PURCHID",
          "data_type": "nvarchar",
          "character_maximum_length": 20,
          "numeric_precision": null,
          "numeric_scale": null,
          "nullable": false,
          "business_key": true
        }
      ],
      "indexes": []
    },
    {
      "table_identifier": "dbo.PURCHLINE",
      "columns": [
        {
          "column_name": "PURCHID",
          "data_type": "nvarchar",
          "character_maximum_length": 20,
          "numeric_precision": null,
          "numeric_scale": null,
          "nullable": false,
          "business_key": false
        },
        {
          "column_name": "ITEMID",
          "data_type": "nvarchar",
          "character_maximum_length": 20,
          "numeric_precision": null,
          "numeric_scale": null,
          "nullable": false,
          "business_key": false
        },
        {
          "column_name": "PURCHSTATUS",
          "data_type": "int",
          "character_maximum_length": null,
          "numeric_precision": 10,
          "numeric_scale": 0,
          "nullable": false,
          "business_key": false
        },
        {
          "column_name": "SHIPPINGDATEREQUESTED",
          "data_type": "datetime",
          "character_maximum_length": null,
          "numeric_precision": null,
          "numeric_scale": null,
          "nullable": false,
          "business_key": false
        },
        {
          "column_name": "TAXGROUP",
          "data_type": "nvarchar",
          "character_maximum_length": 10,
          "numeric_precision": null,
          "numeric_scale": null,
          "nullable": false,
          "business_key": false
        },
        {
          "column_name": "QTYORDERED",
          "data_type": "numeric",
          "character_maximum_length": null,
          "numeric_precision": 32,
          "numeric_scale": 16,
          "nullable": false,
          "business_key": false
        },
        {
          "column_name": "REMAINPURCHPHYSICAL",
          "data_type": "numeric",
          "character_maximum_length": null,
          "numeric_precision": 32,
          "numeric_scale": 16,
          "nullable": false,
          "business_key": false
        },
        {
          "column_name": "PRICEUNIT",
          "data_type": "numeric",
          "character_maximum_length": null,
          "numeric_precision": 32,
          "numeric_scale": 16,
          "nullable": false,
          "business_key": false
        },
        {
          "column_name": "PURCHPRICE",
          "data_type": "numeric",
          "character_maximum_length": null,
          "numeric_precision": 32,
          "numeric_scale": 16,
          "nullable": false,
          "business_key": false
        },
        {
          "column_name": "CURRENCYCODE",
          "data_type": "nvarchar",
          "character_maximum_length": 3,
          "numeric_precision": null,
          "numeric_scale": null,
          "nullable": false,
          "business_key": false
        },
        {
          "column_name": "LINEPERCENT",
          "data_type": "numeric",
          "character_maximum_length": null,
          "numeric_precision": 32,
          "numeric_scale": 16,
          "nullable": false,
          "business_key": false
        },
        {
          "column_name": "LINEDISC",
          "data_type": "numeric",
          "character_maximum_length": null,
          "numeric_precision": 32,
          "numeric_scale": 16,
          "nullable": false,
          "business_key": false
        },
        {
          "column_name": "LINEAMOUNT",
          "data_type": "numeric",
          "character_maximum_length": null,
          "numeric_precision": 32,
          "numeric_scale": 16,
          "nullable": false,
          "business_key": false
        },
        {
          "column_name": "PURCHUNIT",
          "data_type": "nvarchar",
          "character_maximum_length": 10,
          "numeric_precision": null,
          "numeric_scale": null,
          "nullable": false,
          "business_key": false
        },
        {
          "column_name": "PURCHQTY",
          "data_type": "numeric",
          "character_maximum_length": null,
          "numeric_precision": 32,
          "numeric_scale": 16,
          "nullable": false,
          "business_key": false
        },
        {
          "column_name": "PURCHMARKUP",
          "data_type": "numeric",
          "character_maximum_length": null,
          "numeric_precision": 32,
          "numeric_scale": 16,
          "nullable": false,
          "business_key": false
        },
        {
          "column_name": "MULTILNDISC",
          "data_type": "numeric",
          "character_maximum_length": null,
          "numeric_precision": 32,
          "numeric_scale": 16,
          "nullable": false,
          "business_key": false
        },
        {
          "column_name": "MULTILNPERCENT",
          "data_type": "numeric",
          "character_maximum_length": null,
          "numeric_precision": 32,
          "numeric_scale": 16,
          "nullable": false,
          "business_key": false
        },
        {
          "column_name": "PURCHASETYPE",
          "data_type": "int",
          "character_maximum_length": null,
          "numeric_precision": 10,
          "numeric_scale": 0,
          "nullable": false,
          "business_key": false
        },
        {
          "column_name": "REMAININVENTPHYSICAL",
          "data_type": "numeric",
          "character_maximum_length": null,
          "numeric_precision": 32,
          "numeric_scale": 16,
          "nullable": false,
          "business_key": false
        },
        {
          "column_name": "SHIPPINGDATECONFIRMED",
          "data_type": "datetime",
          "character_maximum_length": null,
          "numeric_precision": null,
          "numeric_scale": null,
          "nullable": false,
          "business_key": false
        },
        {
          "column_name": "INVENTDIMID",
          "data_type": "nvarchar",
          "character_maximum_length": 20,
          "numeric_precision": null,
          "numeric_scale": null,
          "nullable": false,
          "business_key": false
        },
        {
          "column_name": "DELIVERYTYPE",
          "data_type": "int",
          "character_maximum_length": null,
          "numeric_precision": 10,
          "numeric_scale": 0,
          "nullable": false,
          "business_key": false
        },
        {
          "column_name": "DEFAULTDIMENSION",
          "data_type": "bigint",
          "character_maximum_length": null,
          "numeric_precision": 19,
          "numeric_scale": 0,
          "nullable": false,
          "business_key": false
        },
        {
          "column_name": "DELIVERYPOSTALADDRESS",
          "data_type": "bigint",
          "character_maximum_length": null,
          "numeric_precision": 19,
          "numeric_scale": 0,
          "nullable": false,
          "business_key": false
        },
        {
          "column_name": "MODIFIEDDATETIME",
          "data_type": "datetime",
          "character_maximum_length": null,
          "numeric_precision": null,
          "numeric_scale": null,
          "nullable": false,
          "business_key": false
        },
        {
          "column_name": "CREATEDDATETIME",
          "data_type": "datetime",
          "character_maximum_length": null,
          "numeric_precision": null,
          "numeric_scale": null,
          "nullable": false,
          "business_key": false
        },
        {
          "column_name": "DATAAREAID",
          "data_type": "nvarchar",
          "character_maximum_length": 4,
          "numeric_precision": null,
          "numeric_scale": null,
          "nullable": false,
          "business_key": true
        },
        {
          "column_name": "RECVERSION",
          "data_type": "int",
          "character_maximum_length": null,
          "numeric_precision": 10,
          "numeric_scale": 0,
          "nullable": false,
          "business_key": false
        },
        {
          "column_name": "RECID",
          "data_type": "bigint",
          "character_maximum_length": null,
          "numeric_precision": 19,
          "numeric_scale": 0,
          "nullable": false,
          "business_key": false
        },
        {
          "column_name": "PARTITION",
          "data_type": "bigint",
          "character_maximum_length": null,
          "numeric_precision": 10,
          "numeric_scale": 0,
          "nullable": false,
          "business_key": true
        },
        {
          "column_name": "TAXITEMGROUP",
          "data_type": "nvarchar",
          "character_maximum_length": 10,
          "numeric_precision": null,
          "numeric_scale": null,
          "nullable": false,
          "business_key": false
        },
        {
          "column_name": "INVENTTRANSID",
          "data_type": "nvarchar",
          "character_maximum_length": 20,
          "numeric_precision": null,
          "numeric_scale": null,
          "nullable": false,
          "business_key": true
        }
      ],
      "indexes": []
    },
    {
      "table_identifier": "dbo.INVENTDIM",
      "columns": [
        {
          "column_name": "INVENTBATCHID",
          "data_type": "nvarchar",
          "character_maximum_length": 20,
          "numeric_precision": null,
          "numeric_scale": null,
          "nullable": false,
          "business_key": false
        },
        {
          "column_name": "WMSLOCATIONID",
          "data_type": "nvarchar",
          "character_maximum_length": 10,
          "numeric_precision": null,
          "numeric_scale": null,
          "nullable": false,
          "business_key": false
        },
        {
          "column_name": "INVENTSERIALID",
          "data_type": "nvarchar",
          "character_maximum_length": 20,
          "numeric_precision": null,
          "numeric_scale": null,
          "nullable": false,
          "business_key": false
        },
        {
          "column_name": "INVENTLOCATIONID",
          "data_type": "nvarchar",
          "character_maximum_length": 10,
          "numeric_precision": null,
          "numeric_scale": null,
          "nullable": false,
          "business_key": false
        },
        {
          "column_name": "CONFIGID",
          "data_type": "nvarchar",
          "character_maximum_length": 10,
          "numeric_precision": null,
          "numeric_scale": null,
          "nullable": false,
          "business_key": false
        },
        {
          "column_name": "INVENTSIZEID",
          "data_type": "nvarchar",
          "character_maximum_length": 10,
          "numeric_precision": null,
          "numeric_scale": null,
          "nullable": false,
          "business_key": false
        },
        {
          "column_name": "INVENTCOLORID",
          "data_type": "nvarchar",
          "character_maximum_length": 10,
          "numeric_precision": null,
          "numeric_scale": null,
          "nullable": false,
          "business_key": false
        },
        {
          "column_name": "INVENTSITEID",
          "data_type": "nvarchar",
          "character_maximum_length": 10,
          "numeric_precision": null,
          "numeric_scale": null,
          "nullable": false,
          "business_key": false
        },
        {
          "column_name": "INVENTSTYLEID",
          "data_type": "nvarchar",
          "character_maximum_length": 10,
          "numeric_precision": null,
          "numeric_scale": null,
          "nullable": false,
          "business_key": false
        },
        {
          "column_name": "MODIFIEDDATETIME",
          "data_type": "datetime",
          "character_maximum_length": null,
          "numeric_precision": null,
          "numeric_scale": null,
          "nullable": false,
          "business_key": false
        },
        {
          "column_name": "MODIFIEDBY",
          "data_type": "nvarchar",
          "character_maximum_length": 8,
          "numeric_precision": null,
          "numeric_scale": null,
          "nullable": false,
          "business_key": false
        },
        {
          "column_name": "CREATEDDATETIME",
          "data_type": "datetime",
          "character_maximum_length": null,
          "numeric_precision": null,
          "numeric_scale": null,
          "nullable": false,
          "business_key": false
        },
        {
          "column_name": "RECVERSION",
          "data_type": "int",
          "character_maximum_length": null,
          "numeric_precision": 10,
          "numeric_scale": 0,
          "nullable": false,
          "business_key": false
        },
        {
          "column_name": "RECID",
          "data_type": "bigint",
          "character_maximum_length": null,
          "numeric_precision": 19,
          "numeric_scale": 0,
          "nullable": false,
          "business_key": false
        },
        {
          "column_name": "PARTITION",
          "data_type": "bigint",
          "character_maximum_length": null,
          "numeric_precision": 10,
          "numeric_scale": 0,
          "nullable": false,
          "business_key": true
        },
        {
          "column_name": "INVENTDIMID",
          "data_type": "nvarchar",
          "character_maximum_length": 20,
          "numeric_precision": null,
          "numeric_scale": null,
          "nullable": false,
          "business_key": true
        },
        {
          "column_name": "DATAAREAID",
          "data_type": "nvarchar",
          "character_maximum_length": 4,
          "numeric_precision": null,
          "numeric_scale": null,
          "nullable": false,
          "business_key": true
        }
      ],
      "indexes": []
    }
  ]
}