{
  "name": "AmountBalanceMOM_IT",
  "description": "Difference between the inventory balance amount at the end of this period and at the end of previous month.",
  "expression": [
    "[AmountBalance_IT] - [AmountBalanceLM_IT]",
    "",
    ""
  ],
  "formatString": "#,##0.00",
  "displayFolder": "Σ MOM",
  "annotations": [
    {
      "name": "TabularEditor_TranslatedNames",
      "value": "{\"en-US\":\"Amount Balance MOM\"}"
    },
    {
      "name": "TabularEditor_TranslatedDisplayFolders",
      "value": "{\"en-US\":\"Σ MOM\"}"
    }
  ]
}