{
  "name": "Quantity_IT",
  "description": "Sum of Inventory quantity",
  "expression": [
    "SUM ( 'factInventoryTransaction'[Quantity] )",
    "",
    ""
  ],
  "formatString": "#,##0.00",
  "annotations": [
    {
      "name": "TabularEditor_TranslatedNames",
      "value": "{\"en-US\":\"Quantity\"}"
    }
  ]
}