{
  "name": "ProductionOrder",
  "columns": [
    {
      "name": "ProductionOrderID",
      "dataType": "int64",
      "isHidden": true,
      "sourceColumn": "ProductionOrderID"
    },
    {
      "name": "StageID",
      "dataType": "int64",
      "isHidden": true,
      "sourceColumn": "StageID"
    },
    {
      "name": "DataConnectionID",
      "dataType": "int64",
      "isHidden": true,
      "sourceColumn": "DataConnectionID"
    },
    {
      "name": "CompanyID",
      "dataType": "int64",
      "isHidden": true,
      "sourceColumn": "CompanyID"
    },
    {
      "name": "Partition",
      "dataType": "int64",
      "isHidden": true,
      "sourceColumn": "Partition"
    },
    {
      "name": "ExecutionTimestamp",
      "dataType": "string",
      "isHidden": true,
      "sourceColumn": "ExecutionTimestamp"
    },
    {
      "name": "ComponentExecutionID",
      "dataType": "int64",
      "isHidden": true,
      "sourceColumn": "ComponentExecutionID"
    },
    {
      "name": "ProductionOrder",
      "dataType": "string",
      "sourceColumn": "ProductionOrder",
      "annotations": [
        {
          "name": "TabularEditor_TranslatedNames",
          "value": "{\"en-US\":\"Production Order\"}"
        }
      ]
    },
    {
      "name": "ProductionStatusDescription",
      "dataType": "string",
      "sourceColumn": "ProductionStatusDescription",
      "sortByColumn": "ProductionStatusCode",
      "annotations": [
        {
          "name": "TabularEditor_TranslatedNames",
          "value": "{\"en-US\":\"Production Status\"}"
        }
      ]
    },
    {
      "name": "SchedulingStatusDescription",
      "dataType": "string",
      "sourceColumn": "SchedulingStatusDescription",
      "sortByColumn": "SchedulingStatusCode",
      "annotations": [
        {
          "name": "TabularEditor_TranslatedNames",
          "value": "{\"en-US\":\"Scheduling Status\"}"
        }
      ]
    },
    {
      "name": "RemainStatusDescription",
      "dataType": "string",
      "sourceColumn": "RemainStatusDescription",
      "sortByColumn": "RemainStatusCode",
      "annotations": [
        {
          "name": "TabularEditor_TranslatedNames",
          "value": "{\"en-US\":\"Remain Status\"}"
        }
      ]
    },
    {
      "name": "ProductionTypeDescription",
      "dataType": "string",
      "sourceColumn": "ProductionTypeDescription",
      "sortByColumn": "ProductionTypeCode",
      "annotations": [
        {
          "name": "TabularEditor_TranslatedNames",
          "value": "{\"en-US\":\"Production Type\"}"
        }
      ]
    },
    {
      "name": "ProductionPoolCode",
      "dataType": "string",
      "isHidden": true,
      "sourceColumn": "ProductionPoolCode"
    },
    {
      "name": "ProductionPoolDescription",
      "dataType": "string",
      "isHidden": true,
      "sourceColumn": "ProductionPoolDescription"
    },
    {
      "name": "ProductionPoolCodeDescription",
      "dataType": "string",
      "sourceColumn": "ProductionPoolCodeDescription",
      "sortByColumn": "ProductionPoolCode",
      "annotations": [
        {
          "name": "TabularEditor_TranslatedNames",
          "value": "{\"en-US\":\"Production Pool\"}"
        }
      ]
    },
    {
      "name": "ProductionGroupCode",
      "dataType": "string",
      "isHidden": true,
      "sourceColumn": "ProductionGroupCode"
    },
    {
      "name": "ProductionGroupDescription",
      "dataType": "string",
      "isHidden": true,
      "sourceColumn": "ProductionGroupDescription"
    },
    {
      "name": "ProductionGroupCodeDescription",
      "dataType": "string",
      "sourceColumn": "ProductionGroupCodeDescription",
      "sortByColumn": "ProductionGroupCode",
      "annotations": [
        {
          "name": "TabularEditor_TranslatedNames",
          "value": "{\"en-US\":\"Production Group\"}"
        }
      ]
    },
    {
      "name": "ProductionStatusCode",
      "dataType": "int64",
      "isHidden": true,
      "sourceColumn": "ProductionStatusCode"
    },
    {
      "name": "SchedulingStatusCode",
      "dataType": "int64",
      "isHidden": true,
      "sourceColumn": "SchedulingStatusCode"
    },
    {
      "name": "RemainStatusCode",
      "dataType": "int64",
      "isHidden": true,
      "sourceColumn": "RemainStatusCode"
    },
    {
      "name": "ProductionTypeCode",
      "dataType": "int64",
      "isHidden": true,
      "sourceColumn": "ProductionTypeCode"
    }
  ],
  "partitions": [
    {
      "name": "ProductionOrder",
      "source": {
        "type": "query",
        "query": "SELECT * FROM dim.ProductionOrder",
        "dataSource": "Birds"
      }
    }
  ],
  "annotations": [
    {
      "name": "TabularEditor_TranslatedNames",
      "value": "{\"en-US\":\"Production Order\"}"
    }
  ]
}