{
  "name": "CostIndex_PR",
  "expression": [
    "DIVIDE ( [CostActual_PR], [CostEstimated_PR] ) * 100",
    "",
    ""
  ],
  "formatString": "#,##0",
  "displayFolder": "Variance",
  "annotations": [
    {
      "name": "TabularEditor_TranslatedNames",
      "value": "{\"en-US\":\"Cost Variance Index\"}"
    }
  ]
}