{
  "name": "CostActual_PR",
  "expression": "SUM ( 'factProduction'[ActualCostRCY] )",
  "formatString": "#,##0.00",
  "annotations": [
    {
      "name": "TabularEditor_TranslatedNames",
      "value": "{\"en-US\":\"Cost Actual\"}"
    }
  ]
}