{
  "name": "MarkupVariance_PR",
  "expression": "[MarkupActual_PR] - [MarkupEstimated_PR]",
  "formatString": "#,##0.00",
  "displayFolder": "Variance",
  "annotations": [
    {
      "name": "TabularEditor_TranslatedNames",
      "value": "{\"en-US\":\"Markup Variance\"}"
    }
  ]
}