{
  "name": "BaseTransactionAmount_GLT",
  "description": "Sum of Tax Base Amount in transaction currency",
  "expression": [
    "SUM ( 'factGeneralLedgerTax'[TaxBaseTransactionAmount] )",
    "",
    ""
  ],
  "formatString": "#,##0.00",
  "displayFolder": "Σ Transaction Currency",
  "annotations": [
    {
      "name": "TabularEditor_TranslatedNames",
      "value": "{\"en-US\":\"Tax Base Amount\"}"
    },
    {
      "name": "TabularEditor_TranslatedDisplayFolders",
      "value": "{\"en-US\":\"Σ Transaction Currency\"}"
    }
  ]
}