{
  "name": "IsDelayedMinCode",
  "expression": [
    "MIN ( 'IsOverdue'[YesNoCode] )",
    "",
    ""
  ],
  "isHidden": true,
  "annotations": [
    {
      "name": "TabularEditor_TranslatedNames",
      "value": "{\"en-US\":\"Is Overdue Min Code\"}"
    }
  ]
}