{
  "name": "InvetoryQuantity_SP",
  "description": "Sum of Inventory Quantity",
  "expression": "SUM ( 'factSalesPacking'[InventoryQuantity] )",
  "formatString": "#,##0",
  "annotations": [
    {
      "name": "TabularEditor_TranslatedNames",
      "value": "{\"en-US\":\"Invetory Quantity\"}"
    }
  ]
}