{
  "name": "ProductionCalculationType",
  "columns": [
    {
      "name": "ProductionCalculationTypeID",
      "dataType": "int64",
      "isHidden": true,
      "sourceColumn": "ProductionCalculationTypeID"
    },
    {
      "name": "ExecutionTimestamp",
      "dataType": "string",
      "isHidden": true,
      "sourceColumn": "ExecutionTimestamp"
    },
    {
      "name": "ComponentExecutionID",
      "dataType": "int64",
      "isHidden": true,
      "sourceColumn": "ComponentExecutionID"
    },
    {
      "name": "CalculationTypeCode",
      "dataType": "int64",
      "isHidden": true,
      "sourceColumn": "CalculationTypeCode"
    },
    {
      "name": "CalculationType",
      "dataType": "string",
      "sourceColumn": "CalculationType",
      "annotations": [
        {
          "name": "TabularEditor_TranslatedNames",
          "value": "{\"en-US\":\"Calculation Type\"}"
        }
      ]
    },
    {
      "name": "DataconnectionID",
      "dataType": "int64",
      "isHidden": true,
      "sourceColumn": "DataconnectionID"
    }
  ],
  "partitions": [
    {
      "name": "ProductionCalculationType",
      "source": {
        "type": "query",
        "query": "SELECT * FROM dim.ProductionCalculationType",
        "dataSource": "Birds"
      }
    }
  ],
  "annotations": [
    {
      "name": "TabularEditor_TranslatedNames",
      "value": "{\"en-US\":\"Production Calculation Type\"}"
    }
  ]
}