{
  "name": "YWD",
  "levels": [
    {
      "name": "CYearDesc",
      "ordinal": 0,
      "column": "CYearDesc",
      "annotations": [
        {
          "name": "TabularEditor_TranslatedNames",
          "value": "{\"en-US\":\"Year\"}"
        }
      ]
    },
    {
      "name": "CWeekDesc",
      "ordinal": 1,
      "column": "CWeekDesc",
      "annotations": [
        {
          "name": "TabularEditor_TranslatedNames",
          "value": "{\"en-US\":\"Week\"}"
        }
      ]
    },
    {
      "name": "Date",
      "ordinal": 2,
      "column": "Date",
      "annotations": [
        {
          "name": "TabularEditor_TranslatedNames",
          "value": "{\"en-US\":\"Date\"}"
        }
      ]
    }
  ]
}