{
  "name": "NumberOfOnTimeProductionOrders_PRO",
  "expression": [
    "VAR OnTimeOrders =",
    "    FILTER ( factProductionOrder, 'factProductionOrder'[IsOnTime] = TRUE )",
    "RETURN",
    "    CALCULATE ( [NumberOfProductionOrders_PRO], OnTimeOrders )",
    "",
    ""
  ],
  "formatString": "#,##0",
  "annotations": [
    {
      "name": "TabularEditor_TranslatedNames",
      "value": "{\"en-US\":\"Number Of On Time Production Orders\"}"
    }
  ]
}