{
  "name": "OnTimeProductionRateIndex_PRO",
  "expression": [
    "DIVIDE( [NumberOfOnTimeProductionOrders_PRO] , [NumberOfProductionOrders_PRO] ) * 100",
    ""
  ],
  "formatString": "#,##0",
  "annotations": [
    {
      "name": "TabularEditor_TranslatedNames",
      "value": "{\"en-US\":\"On Time Production Rate Index\"}"
    }
  ]
}