{
  "base_name": "FinancialDimensions",
  "category": "dim",
  "database_object": {
    "table_identifier": "dim.FinancialDimensions",
    "columns": [
      {
        "column_name": "FinancialDimensionsID",
        "data_type": "int",
        "character_maximum_length": 0,
        "numeric_precision": 10,
        "numeric_scale": 0,
        "nullable": false,
        "business_key": true
      },
      {
        "column_name": "DataConnectionID",
        "data_type": "int",
        "character_maximum_length": 0,
        "numeric_precision": 10,
        "numeric_scale": 0,
        "nullable": false,
        "business_key": false
      },
      {
        "column_name": "ExecutionTimestamp",
        "data_type": "timestamp",
        "character_maximum_length": 0,
        "numeric_precision": 0,
        "numeric_scale": 0,
        "nullable": false,
        "business_key": false
      },
      {
        "column_name": "ComponentExecutionID",
        "data_type": "int",
        "character_maximum_length": 0,
        "numeric_precision": 10,
        "numeric_scale": 0,
        "nullable": true,
        "business_key": false
      },
      {
        "column_name": "Partition",
        "data_type": "bigint",
        "character_maximum_length": 0,
        "numeric_precision": 10,
        "numeric_scale": 0,
        "nullable": true,
        "business_key": false
      },
      {
        "column_name": "DefaultDimension",
        "data_type": "bigint",
        "character_maximum_length": 0,
        "numeric_precision": 19,
        "numeric_scale": 0,
        "nullable": true,
        "business_key": false
      },
      {
        "column_name": "LedgerDimension",
        "data_type": "bigint",
        "character_maximum_length": 0,
        "numeric_precision": 19,
        "numeric_scale": 0,
        "nullable": true,
        "business_key": false
      }
    ],
    "indexes": [
      {
        "name": "ix_c_dim_financialdimension",
        "type": "Clustered",
        "columns": [
          "DataConnectionID",
          "Partition",
          "DefaultDimension"
        ],
        "included_columns": [
          ""
        ],
        "fill_factor": 90,
        "is_unique": false
      }
    ]
  },
  "load_procedures": [
    {
      "sequence": 100,
      "identifier": "dim.LoadFinancialDimensions"
    }
  ],
  "views": null,
  "load_type": 1,
  "validation": null
}