{
  "name": "OpenDaysAgeGroup",
  "columns": [
    {
      "type": "calculatedTableColumn",
      "name": "AgeGroupCode",
      "dataType": "string",
      "isNameInferred": true,
      "isDataTypeInferred": true,
      "sourceColumn": "AgeGroup[AgeGroupCode]",
      "sortByColumn": "AgeGroupMin",
      "annotations": [
        {
          "name": "TabularEditor_TranslatedNames",
          "value": "{\"en-US\":\"Age Group\"}"
        }
      ]
    },
    {
      "type": "calculatedTableColumn",
      "name": "AgeGroupDesc",
      "dataType": "string",
      "isNameInferred": true,
      "isDataTypeInferred": true,
      "isHidden": true,
      "sourceColumn": "AgeGroup[AgeGroupDesc]",
      "sortByColumn": "AgeGroupMin"
    },
    {
      "type": "calculatedTableColumn",
      "name": "AgeGroupID",
      "dataType": "int64",
      "isNameInferred": true,
      "isDataTypeInferred": true,
      "isHidden": true,
      "sourceColumn": "AgeGroup[AgeGroupID]"
    },
    {
      "type": "calculatedTableColumn",
      "name": "AgeGroupMax",
      "dataType": "int64",
      "isNameInferred": true,
      "isDataTypeInferred": true,
      "isHidden": true,
      "sourceColumn": "AgeGroup[AgeGroupMax]"
    },
    {
      "type": "calculatedTableColumn",
      "name": "AgeGroupMin",
      "dataType": "int64",
      "isNameInferred": true,
      "isDataTypeInferred": true,
      "isHidden": true,
      "sourceColumn": "AgeGroup[AgeGroupMin]"
    }
  ],
  "partitions": [
    {
      "name": "Calculated Table",
      "source": {
        "type": "calculated",
        "expression": "ALL('AgeGroup')"
      }
    }
  ],
  "annotations": [
    {
      "name": "TabularEditor_TranslatedNames",
      "value": "{\"en-US\":\"Open Days Age Group\"}"
    }
  ]
}