{
  "connection_types": [
    {
      "category": "AX",
      "name": "AX2012R3"
    }
  ],
  "tables": [
    {
      "table_identifier": "dbo.SALESTABLE",
      "columns": [
        {
          "column_name": "CUSTACCOUNT",
          "data_type": "nvarchar",
          "character_maximum_length": 20,
          "numeric_precision": null,
          "numeric_scale": null,
          "nullable": false,
          "business_key": false
        },
        {
          "column_name": "INVOICEACCOUNT",
          "data_type": "nvarchar",
          "character_maximum_length": 20,
          "numeric_precision": null,
          "numeric_scale": null,
          "nullable": false,
          "business_key": false
        },
        {
          "column_name": "SALESGROUP",
          "data_type": "nvarchar",
          "character_maximum_length": 10,
          "numeric_precision": null,
          "numeric_scale": null,
          "nullable": false,
          "business_key": false
        },
        {
          "column_name": "CURRENCYCODE",
          "data_type": "nvarchar",
          "character_maximum_length": 3,
          "numeric_precision": null,
          "numeric_scale": null,
          "nullable": false,
          "business_key": false
        },
        {
          "column_name": "PAYMENT",
          "data_type": "nvarchar",
          "character_maximum_length": 10,
          "numeric_precision": null,
          "numeric_scale": null,
          "nullable": false,
          "business_key": false
        },
        {
          "column_name": "TAXGROUP",
          "data_type": "nvarchar",
          "character_maximum_length": 10,
          "numeric_precision": null,
          "numeric_scale": null,
          "nullable": false,
          "business_key": false
        },
        {
          "column_name": "MULTILINEDISC",
          "data_type": "nvarchar",
          "character_maximum_length": 10,
          "numeric_precision": null,
          "numeric_scale": null,
          "nullable": false,
          "business_key": false
        },
        {
          "column_name": "DLVTERM",
          "data_type": "nvarchar",
          "character_maximum_length": 10,
          "numeric_precision": null,
          "numeric_scale": null,
          "nullable": false,
          "business_key": false
        },
        {
          "column_name": "DLVMODE",
          "data_type": "nvarchar",
          "character_maximum_length": 10,
          "numeric_precision": null,
          "numeric_scale": null,
          "nullable": false,
          "business_key": false
        },
        {
          "column_name": "SALESSTATUS",
          "data_type": "int",
          "character_maximum_length": null,
          "numeric_precision": 10,
          "numeric_scale": 0,
          "nullable": false,
          "business_key": false
        },
        {
          "column_name": "SALESTYPE",
          "data_type": "int",
          "character_maximum_length": null,
          "numeric_precision": 10,
          "numeric_scale": 0,
          "nullable": false,
          "business_key": false
        },
        {
          "column_name": "SALESPOOLID",
          "data_type": "nvarchar",
          "character_maximum_length": 10,
          "numeric_precision": null,
          "numeric_scale": null,
          "nullable": false,
          "business_key": false
        },
        {
          "column_name": "SALESORIGINID",
          "data_type": "nvarchar",
          "character_maximum_length": 10,
          "numeric_precision": null,
          "numeric_scale": null,
          "nullable": false,
          "business_key": false
        },
        {
          "column_name": "PAYMMODE",
          "data_type": "nvarchar",
          "character_maximum_length": 10,
          "numeric_precision": null,
          "numeric_scale": null,
          "nullable": false,
          "business_key": false
        },
        {
          "column_name": "RECEIPTDATEREQUESTED",
          "data_type": "datetime",
          "character_maximum_length": null,
          "numeric_precision": null,
          "numeric_scale": null,
          "nullable": false,
          "business_key": false
        },
        {
          "column_name": "RECEIPTDATECONFIRMED",
          "data_type": "datetime",
          "character_maximum_length": null,
          "numeric_precision": null,
          "numeric_scale": null,
          "nullable": false,
          "business_key": false
        },
        {
          "column_name": "SHIPPINGDATEREQUESTED",
          "data_type": "datetime",
          "character_maximum_length": null,
          "numeric_precision": null,
          "numeric_scale": null,
          "nullable": false,
          "business_key": false
        },
        {
          "column_name": "SHIPPINGDATECONFIRMED",
          "data_type": "datetime",
          "character_maximum_length": null,
          "numeric_precision": null,
          "numeric_scale": null,
          "nullable": false,
          "business_key": false
        },
        {
          "column_name": "EINVOICEACCOUNTCODE",
          "data_type": "nvarchar",
          "character_maximum_length": 35,
          "numeric_precision": null,
          "numeric_scale": null,
          "nullable": false,
          "business_key": false
        },
        {
          "column_name": "WORKERSALESTAKER",
          "data_type": "bigint",
          "character_maximum_length": null,
          "numeric_precision": 19,
          "numeric_scale": 0,
          "nullable": false,
          "business_key": false
        },
        {
          "column_name": "WORKERSALESRESPONSIBLE",
          "data_type": "bigint",
          "character_maximum_length": null,
          "numeric_precision": 19,
          "numeric_scale": 0,
          "nullable": false,
          "business_key": false
        },
        {
          "column_name": "MODIFIEDDATETIME",
          "data_type": "datetime",
          "character_maximum_length": null,
          "numeric_precision": null,
          "numeric_scale": null,
          "nullable": false,
          "business_key": false
        },
        {
          "column_name": "CREATEDDATETIME",
          "data_type": "datetime",
          "character_maximum_length": null,
          "numeric_precision": null,
          "numeric_scale": null,
          "nullable": false,
          "business_key": false
        },
        {
          "column_name": "RECVERSION",
          "data_type": "int",
          "character_maximum_length": null,
          "numeric_precision": 10,
          "numeric_scale": 0,
          "nullable": false,
          "business_key": false
        },
        {
          "column_name": "RECID",
          "data_type": "bigint",
          "character_maximum_length": null,
          "numeric_precision": 19,
          "numeric_scale": 0,
          "nullable": false,
          "business_key": false
        },
        {
          "column_name": "PARTITION",
          "data_type": "bigint",
          "character_maximum_length": null,
          "numeric_precision": 10,
          "numeric_scale": 0,
          "nullable": false,
          "business_key": true
        },
        {
          "column_name": "DATAAREAID",
          "data_type": "nvarchar",
          "character_maximum_length": 4,
          "numeric_precision": null,
          "numeric_scale": null,
          "nullable": false,
          "business_key": true
        },
        {
          "column_name": "SALESID",
          "data_type": "nvarchar",
          "character_maximum_length": 20,
          "numeric_precision": null,
          "numeric_scale": null,
          "nullable": false,
          "business_key": true
        }
      ],
      "indexes": []
    },
    {
      "table_identifier": "dbo.SALESLINE",
      "columns": [
        {
          "column_name": "SALESID",
          "data_type": "nvarchar",
          "character_maximum_length": 20,
          "numeric_precision": null,
          "numeric_scale": null,
          "nullable": false,
          "business_key": false
        },
        {
          "column_name": "ITEMID",
          "data_type": "nvarchar",
          "character_maximum_length": 20,
          "numeric_precision": null,
          "numeric_scale": null,
          "nullable": false,
          "business_key": false
        },
        {
          "column_name": "SALESSTATUS",
          "data_type": "int",
          "character_maximum_length": null,
          "numeric_precision": 10,
          "numeric_scale": 0,
          "nullable": false,
          "business_key": false
        },
        {
          "column_name": "TAXGROUP",
          "data_type": "nvarchar",
          "character_maximum_length": 10,
          "numeric_precision": null,
          "numeric_scale": null,
          "nullable": false,
          "business_key": false
        },
        {
          "column_name": "QTYORDERED",
          "data_type": "numeric",
          "character_maximum_length": null,
          "numeric_precision": 32,
          "numeric_scale": 16,
          "nullable": false,
          "business_key": false
        },
        {
          "column_name": "REMAINSALESPHYSICAL",
          "data_type": "numeric",
          "character_maximum_length": null,
          "numeric_precision": 32,
          "numeric_scale": 16,
          "nullable": false,
          "business_key": false
        },
        {
          "column_name": "COSTPRICE",
          "data_type": "numeric",
          "character_maximum_length": null,
          "numeric_precision": 32,
          "numeric_scale": 16,
          "nullable": false,
          "business_key": false
        },
        {
          "column_name": "SALESPRICE",
          "data_type": "numeric",
          "character_maximum_length": null,
          "numeric_precision": 32,
          "numeric_scale": 16,
          "nullable": false,
          "business_key": false
        },
        {
          "column_name": "CURRENCYCODE",
          "data_type": "nvarchar",
          "character_maximum_length": 3,
          "numeric_precision": null,
          "numeric_scale": null,
          "nullable": false,
          "business_key": false
        },
        {
          "column_name": "LINEPERCENT",
          "data_type": "numeric",
          "character_maximum_length": null,
          "numeric_precision": 32,
          "numeric_scale": 16,
          "nullable": false,
          "business_key": false
        },
        {
          "column_name": "LINEDISC",
          "data_type": "numeric",
          "character_maximum_length": null,
          "numeric_precision": 32,
          "numeric_scale": 16,
          "nullable": false,
          "business_key": false
        },
        {
          "column_name": "LINEAMOUNT",
          "data_type": "numeric",
          "character_maximum_length": null,
          "numeric_precision": 32,
          "numeric_scale": 16,
          "nullable": false,
          "business_key": false
        },
        {
          "column_name": "SALESGROUP",
          "data_type": "nvarchar",
          "character_maximum_length": 10,
          "numeric_precision": null,
          "numeric_scale": null,
          "nullable": false,
          "business_key": false
        },
        {
          "column_name": "SALESUNIT",
          "data_type": "nvarchar",
          "character_maximum_length": 10,
          "numeric_precision": null,
          "numeric_scale": null,
          "nullable": false,
          "business_key": false
        },
        {
          "column_name": "PRICEUNIT",
          "data_type": "numeric",
          "character_maximum_length": null,
          "numeric_precision": 32,
          "numeric_scale": 16,
          "nullable": false,
          "business_key": false
        },
        {
          "column_name": "INVENTTRANSID",
          "data_type": "nvarchar",
          "character_maximum_length": 20,
          "numeric_precision": null,
          "numeric_scale": null,
          "nullable": false,
          "business_key": true
        },
        {
          "column_name": "CUSTACCOUNT",
          "data_type": "nvarchar",
          "character_maximum_length": 20,
          "numeric_precision": null,
          "numeric_scale": null,
          "nullable": false,
          "business_key": false
        },
        {
          "column_name": "SALESQTY",
          "data_type": "numeric",
          "character_maximum_length": null,
          "numeric_precision": 32,
          "numeric_scale": 16,
          "nullable": false,
          "business_key": false
        },
        {
          "column_name": "SALESMARKUP",
          "data_type": "numeric",
          "character_maximum_length": null,
          "numeric_precision": 32,
          "numeric_scale": 16,
          "nullable": false,
          "business_key": false
        },
        {
          "column_name": "MULTILNDISC",
          "data_type": "numeric",
          "character_maximum_length": null,
          "numeric_precision": 32,
          "numeric_scale": 16,
          "nullable": false,
          "business_key": false
        },
        {
          "column_name": "MULTILNPERCENT",
          "data_type": "numeric",
          "character_maximum_length": null,
          "numeric_precision": 32,
          "numeric_scale": 16,
          "nullable": false,
          "business_key": false
        },
        {
          "column_name": "SALESTYPE",
          "data_type": "int",
          "character_maximum_length": null,
          "numeric_precision": 10,
          "numeric_scale": 0,
          "nullable": false,
          "business_key": false
        },
        {
          "column_name": "REMAININVENTPHYSICAL",
          "data_type": "numeric",
          "character_maximum_length": null,
          "numeric_precision": 32,
          "numeric_scale": 16,
          "nullable": false,
          "business_key": false
        },
        {
          "column_name": "TAXITEMGROUP",
          "data_type": "nvarchar",
          "character_maximum_length": 10,
          "numeric_precision": null,
          "numeric_scale": null,
          "nullable": false,
          "business_key": false
        },
        {
          "column_name": "DLVMODE",
          "data_type": "nvarchar",
          "character_maximum_length": 10,
          "numeric_precision": null,
          "numeric_scale": null,
          "nullable": false,
          "business_key": false
        },
        {
          "column_name": "INVENTDIMID",
          "data_type": "nvarchar",
          "character_maximum_length": 20,
          "numeric_precision": null,
          "numeric_scale": null,
          "nullable": false,
          "business_key": false
        },
        {
          "column_name": "RECEIPTDATEREQUESTED",
          "data_type": "datetime",
          "character_maximum_length": null,
          "numeric_precision": null,
          "numeric_scale": null,
          "nullable": false,
          "business_key": false
        },
        {
          "column_name": "DELIVERYTYPE",
          "data_type": "int",
          "character_maximum_length": null,
          "numeric_precision": 10,
          "numeric_scale": 0,
          "nullable": false,
          "business_key": false
        },
        {
          "column_name": "RECEIPTDATECONFIRMED",
          "data_type": "datetime",
          "character_maximum_length": null,
          "numeric_precision": null,
          "numeric_scale": null,
          "nullable": false,
          "business_key": false
        },
        {
          "column_name": "SHIPPINGDATEREQUESTED",
          "data_type": "datetime",
          "character_maximum_length": null,
          "numeric_precision": null,
          "numeric_scale": null,
          "nullable": false,
          "business_key": false
        },
        {
          "column_name": "SHIPPINGDATECONFIRMED",
          "data_type": "datetime",
          "character_maximum_length": null,
          "numeric_precision": null,
          "numeric_scale": null,
          "nullable": false,
          "business_key": false
        },
        {
          "column_name": "DELIVERYPOSTALADDRESS",
          "data_type": "bigint",
          "character_maximum_length": null,
          "numeric_precision": 19,
          "numeric_scale": 0,
          "nullable": false,
          "business_key": false
        },
        {
          "column_name": "DEFAULTDIMENSION",
          "data_type": "bigint",
          "character_maximum_length": null,
          "numeric_precision": 19,
          "numeric_scale": 0,
          "nullable": false,
          "business_key": false
        },
        {
          "column_name": "CREDITNOTEREASONCODE",
          "data_type": "bigint",
          "character_maximum_length": null,
          "numeric_precision": 19,
          "numeric_scale": 0,
          "nullable": false,
          "business_key": false
        },
        {
          "column_name": "DLVTERM",
          "data_type": "nvarchar",
          "character_maximum_length": 10,
          "numeric_precision": null,
          "numeric_scale": null,
          "nullable": false,
          "business_key": false
        },
        {
          "column_name": "MODIFIEDDATETIME",
          "data_type": "datetime",
          "character_maximum_length": null,
          "numeric_precision": null,
          "numeric_scale": null,
          "nullable": false,
          "business_key": false
        },
        {
          "column_name": "CREATEDDATETIME",
          "data_type": "datetime",
          "character_maximum_length": null,
          "numeric_precision": null,
          "numeric_scale": null,
          "nullable": false,
          "business_key": false
        },
        {
          "column_name": "RECVERSION",
          "data_type": "int",
          "character_maximum_length": null,
          "numeric_precision": 10,
          "numeric_scale": 0,
          "nullable": false,
          "business_key": false
        },
        {
          "column_name": "RECID",
          "data_type": "bigint",
          "character_maximum_length": null,
          "numeric_precision": 19,
          "numeric_scale": 0,
          "nullable": false,
          "business_key": false
        },
        {
          "column_name": "DATAAREAID",
          "data_type": "nvarchar",
          "character_maximum_length": 4,
          "numeric_precision": null,
          "numeric_scale": null,
          "nullable": false,
          "business_key": true
        },
        {
          "column_name": "PARTITION",
          "data_type": "bigint",
          "character_maximum_length": null,
          "numeric_precision": 10,
          "numeric_scale": 0,
          "nullable": false,
          "business_key": true
        }
      ],
      "indexes": []
    },
    {
      "table_identifier": "dbo.INVENTDIM",
      "columns": [
        {
          "column_name": "INVENTBATCHID",
          "data_type": "nvarchar",
          "character_maximum_length": 20,
          "numeric_precision": null,
          "numeric_scale": null,
          "nullable": false,
          "business_key": false
        },
        {
          "column_name": "WMSLOCATIONID",
          "data_type": "nvarchar",
          "character_maximum_length": 10,
          "numeric_precision": null,
          "numeric_scale": null,
          "nullable": false,
          "business_key": false
        },
        {
          "column_name": "INVENTSERIALID",
          "data_type": "nvarchar",
          "character_maximum_length": 20,
          "numeric_precision": null,
          "numeric_scale": null,
          "nullable": false,
          "business_key": false
        },
        {
          "column_name": "INVENTLOCATIONID",
          "data_type": "nvarchar",
          "character_maximum_length": 10,
          "numeric_precision": null,
          "numeric_scale": null,
          "nullable": false,
          "business_key": false
        },
        {
          "column_name": "CONFIGID",
          "data_type": "nvarchar",
          "character_maximum_length": 10,
          "numeric_precision": null,
          "numeric_scale": null,
          "nullable": false,
          "business_key": false
        },
        {
          "column_name": "INVENTSIZEID",
          "data_type": "nvarchar",
          "character_maximum_length": 10,
          "numeric_precision": null,
          "numeric_scale": null,
          "nullable": false,
          "business_key": false
        },
        {
          "column_name": "INVENTCOLORID",
          "data_type": "nvarchar",
          "character_maximum_length": 10,
          "numeric_precision": null,
          "numeric_scale": null,
          "nullable": false,
          "business_key": false
        },
        {
          "column_name": "INVENTSTYLEID",
          "data_type": "nvarchar",
          "character_maximum_length": 10,
          "numeric_precision": null,
          "numeric_scale": null,
          "nullable": false,
          "business_key": false
        },
        {
          "column_name": "MODIFIEDDATETIME",
          "data_type": "datetime",
          "character_maximum_length": null,
          "numeric_precision": null,
          "numeric_scale": null,
          "nullable": false,
          "business_key": false
        },
        {
          "column_name": "RECVERSION",
          "data_type": "int",
          "character_maximum_length": null,
          "numeric_precision": 10,
          "numeric_scale": 0,
          "nullable": false,
          "business_key": false
        },
        {
          "column_name": "RECID",
          "data_type": "bigint",
          "character_maximum_length": null,
          "numeric_precision": 19,
          "numeric_scale": 0,
          "nullable": false,
          "business_key": false
        },
        {
          "column_name": "PARTITION",
          "data_type": "bigint",
          "character_maximum_length": null,
          "numeric_precision": 10,
          "numeric_scale": 0,
          "nullable": false,
          "business_key": true
        },
        {
          "column_name": "INVENTDIMID",
          "data_type": "nvarchar",
          "character_maximum_length": 20,
          "numeric_precision": null,
          "numeric_scale": null,
          "nullable": false,
          "business_key": true
        },
        {
          "column_name": "DATAAREAID",
          "data_type": "nvarchar",
          "character_maximum_length": 4,
          "numeric_precision": null,
          "numeric_scale": null,
          "nullable": false,
          "business_key": true
        }
      ],
      "indexes": []
    }
  ]
}