{
  "connection_types": [
    {
      "category": "AX",
      "name": "AX2012R3"
    }
  ],
  "tables": [
    {
      "table_identifier": "dbo.BUDGETTRANSACTIONLINE",
      "columns": [
        {
          "column_name": "BUDGETTRANSACTIONHEADER",
          "data_type": "bigint",
          "character_maximum_length": null,
          "numeric_precision": 19,
          "numeric_scale": 0,
          "nullable": false,
          "business_key": false
        },
        {
          "column_name": "DATE",
          "data_type": "datetime",
          "character_maximum_length": null,
          "numeric_precision": null,
          "numeric_scale": null,
          "nullable": false,
          "business_key": false
        },
        {
          "column_name": "LEDGERDIMENSION",
          "data_type": "bigint",
          "character_maximum_length": null,
          "numeric_precision": 19,
          "numeric_scale": 0,
          "nullable": false,
          "business_key": false
        },
        {
          "column_name": "TRANSACTIONCURRENCYAMOUNT",
          "data_type": "numeric",
          "character_maximum_length": null,
          "numeric_precision": 32,
          "numeric_scale": 16,
          "nullable": false,
          "business_key": false
        },
        {
          "column_name": "ACCOUNTINGCURRENCYAMOUNT",
          "data_type": "numeric",
          "character_maximum_length": null,
          "numeric_precision": 32,
          "numeric_scale": 16,
          "nullable": false,
          "business_key": false
        },
        {
          "column_name": "TRANSACTIONCURRENCY",
          "data_type": "nvarchar",
          "character_maximum_length": 3,
          "numeric_precision": null,
          "numeric_scale": null,
          "nullable": false,
          "business_key": false
        },
        {
          "column_name": "GENERALJOURNALENTRY",
          "data_type": "bigint",
          "character_maximum_length": null,
          "numeric_precision": 19,
          "numeric_scale": 0,
          "nullable": false,
          "business_key": false
        },
        {
          "column_name": "RECVERSION",
          "data_type": "int",
          "character_maximum_length": null,
          "numeric_precision": 10,
          "numeric_scale": 0,
          "nullable": false,
          "business_key": false
        },
        {
          "column_name": "PARTITION",
          "data_type": "bigint",
          "character_maximum_length": null,
          "numeric_precision": 19,
          "numeric_scale": 0,
          "nullable": false,
          "business_key": false
        },
        {
          "column_name": "RECID",
          "data_type": "bigint",
          "character_maximum_length": null,
          "numeric_precision": 19,
          "numeric_scale": 0,
          "nullable": false,
          "business_key": false
        }
      ]
    },
    {
      "table_identifier": "dbo.LEDGER",
      "columns": [
        {
          "column_name": "CHARTOFACCOUNTS",
          "data_type": "bigint",
          "character_maximum_length": null,
          "numeric_precision": 19,
          "numeric_scale": 0,
          "nullable": false,
          "business_key": false
        },
        {
          "column_name": "RECVERSION",
          "data_type": "int",
          "character_maximum_length": null,
          "numeric_precision": 10,
          "numeric_scale": 0,
          "nullable": false,
          "business_key": false
        },
        {
          "column_name": "PARTITION",
          "data_type": "bigint",
          "character_maximum_length": null,
          "numeric_precision": 19,
          "numeric_scale": 0,
          "nullable": false,
          "business_key": false
        },
        {
          "column_name": "RECID",
          "data_type": "bigint",
          "character_maximum_length": null,
          "numeric_precision": 19,
          "numeric_scale": 0,
          "nullable": false,
          "business_key": false
        }
      ]
    },
    {
      "table_identifier": "dbo.MAINACCOUNT",
      "columns": [
        {
          "column_name": "MAINACCOUNTID",
          "data_type": "nvarchar",
          "character_maximum_length": 20,
          "numeric_precision": null,
          "numeric_scale": null,
          "nullable": false,
          "business_key": false
        },
        {
          "column_name": "TYPE",
          "data_type": "int",
          "character_maximum_length": null,
          "numeric_precision": 10,
          "numeric_scale": 0,
          "nullable": false,
          "business_key": false
        },
        {
          "column_name": "RECVERSION",
          "data_type": "int",
          "character_maximum_length": null,
          "numeric_precision": 10,
          "numeric_scale": 0,
          "nullable": false,
          "business_key": false
        },
        {
          "column_name": "PARTITION",
          "data_type": "bigint",
          "character_maximum_length": null,
          "numeric_precision": 19,
          "numeric_scale": 0,
          "nullable": false,
          "business_key": false
        },
        {
          "column_name": "RECID",
          "data_type": "bigint",
          "character_maximum_length": null,
          "numeric_precision": 19,
          "numeric_scale": 0,
          "nullable": false,
          "business_key": false
        }
      ]
    },
    {
      "table_identifier": "dbo.DIMENSIONATTRIBUTEVALUECOMBINATION",
      "columns": [
        {
          "column_name": "MAINACCOUNT",
          "data_type": "bigint",
          "character_maximum_length": null,
          "numeric_precision": 19,
          "numeric_scale": 0,
          "nullable": false,
          "business_key": false
        },
        {
          "column_name": "RECVERSION",
          "data_type": "int",
          "character_maximum_length": null,
          "numeric_precision": 10,
          "numeric_scale": 0,
          "nullable": false,
          "business_key": false
        },
        {
          "column_name": "PARTITION",
          "data_type": "bigint",
          "character_maximum_length": null,
          "numeric_precision": 19,
          "numeric_scale": 0,
          "nullable": false,
          "business_key": false
        },
        {
          "column_name": "RECID",
          "data_type": "bigint",
          "character_maximum_length": null,
          "numeric_precision": 19,
          "numeric_scale": 0,
          "nullable": false,
          "business_key": false
        }
      ]
    },
    {
      "table_identifier": "dbo.BUDGETTRANSACTIONHEADER",
      "columns": [
        {
          "column_name": "TRANSACTIONNUMBER",
          "data_type": "nvarchar",
          "character_maximum_length": 20,
          "numeric_precision": null,
          "numeric_scale": null,
          "nullable": false,
          "business_key": false
        },
		 {
         "column_name": "BUDGETTRANSACTIONCODE",
          "data_type": "bigint",
          "character_maximum_length": null,
          "numeric_precision": 19,
          "numeric_scale": 0,
          "nullable": false,
          "business_key": false
        },
        {
          "column_name": "BUDGETMODELID",
          "data_type": "nvarchar",
          "character_maximum_length": 10,
          "numeric_precision": null,
          "numeric_scale": null,
          "nullable": false,
          "business_key": false
        },
        {
          "column_name": "BUDGETSUBMODELID",
          "data_type": "nvarchar",
          "character_maximum_length": 10,
          "numeric_precision": null,
          "numeric_scale": null,
          "nullable": false,
          "business_key": false
        },
        {
          "column_name": "PRIMARYLEDGER",
          "data_type": "bigint",
          "character_maximum_length": null,
          "numeric_precision": 19,
          "numeric_scale": 0,
          "nullable": false,
          "business_key": false
        },
        {
          "column_name": "BUDGETMODELDATAAREAID",
          "data_type": "nvarchar",
          "character_maximum_length": 4,
          "numeric_precision": null,
          "numeric_scale": null,
          "nullable": false,
          "business_key": false
        },
        {
          "column_name": "RECVERSION",
          "data_type": "int",
          "character_maximum_length": null,
          "numeric_precision": 10,
          "numeric_scale": 0,
          "nullable": false,
          "business_key": false
        },
        {
          "column_name": "PARTITION",
          "data_type": "bigint",
          "character_maximum_length": null,
          "numeric_precision": 19,
          "numeric_scale": 0,
          "nullable": false,
          "business_key": false
        },
        {
          "column_name": "RECID",
          "data_type": "bigint",
          "character_maximum_length": null,
          "numeric_precision": 19,
          "numeric_scale": 0,
          "nullable": false,
          "business_key": false
        }
      ]
    },
	{
		"table_identifier": "dbo.BUDGETPLANLINEBUDGETTRANSACTIONLINELINK",
      "columns": [
        {
          "column_name": "BUDGETPLANLINE",
          "data_type": "bigint",
          "character_maximum_length": null,
          "numeric_precision": 19,
          "numeric_scale": 0,
          "nullable": false,
          "business_key": false
        },
        {
          "column_name": "BUDGETTRANSACTIONLINE",
          "data_type": "bigint",
          "character_maximum_length": null,
          "numeric_precision": 19,
          "numeric_scale": 0,
          "nullable": false,
          "business_key": false
        },
        {
          "column_name": "MODIFIEDDATETIME",
          "data_type": "datetime",
          "character_maximum_length": null,
          "numeric_precision": null,
          "numeric_scale": null,
          "nullable": false,
          "business_key": false
        },
        {
          "column_name": "MODIFIEDBY",
          "data_type": "nvarchar",
          "character_maximum_length": 8,
          "numeric_precision": null,
          "numeric_scale": null,
          "nullable": false,
          "business_key": false
        },
        {
          "column_name": "CREATEDDATETIME",
          "data_type": "datetime",
          "character_maximum_length": null,
          "numeric_precision": null,
          "numeric_scale": null,
          "nullable": false,
          "business_key": false
        },
        {
          "column_name": "CREATEDBY",
          "data_type": "nvarchar",
          "character_maximum_length": 8,
          "numeric_precision": null,
          "numeric_scale": null,
          "nullable": false,
          "business_key": false
        },
        {
          "column_name": "RECVERSION",
          "data_type": "int",
          "character_maximum_length": null,
          "numeric_precision": 10,
          "numeric_scale": 0,
          "nullable": false,
          "business_key": false
        },
        {
          "column_name": "PARTITION",
          "data_type": "bigint",
          "character_maximum_length": null,
          "numeric_precision": 19,
          "numeric_scale": 0,
          "nullable": false,
          "business_key": false
        },
        {
          "column_name": "RECID",
          "data_type": "bigint",
          "character_maximum_length": null,
          "numeric_precision": 19,
          "numeric_scale": 0,
          "nullable": false,
          "business_key": false
        }
      ]
    },
    {
      "table_identifier": "dbo.BUDGETPLANHEADER",
      "columns": [
        {
          "column_name": "DOCUMENTNUMBER",
          "data_type": "nvarchar",
          "character_maximum_length": 20,
          "numeric_precision": null,
          "numeric_scale": null,
          "nullable": false,
          "business_key": false
        },
        {
          "column_name": "RECVERSION",
          "data_type": "int",
          "character_maximum_length": null,
          "numeric_precision": 10,
          "numeric_scale": 0,
          "nullable": false,
          "business_key": false
        },
        {
          "column_name": "PARTITION",
          "data_type": "bigint",
          "character_maximum_length": null,
          "numeric_precision": 19,
          "numeric_scale": 0,
          "nullable": false,
          "business_key": false
        },
        {
          "column_name": "RECID",
          "data_type": "bigint",
          "character_maximum_length": null,
          "numeric_precision": 19,
          "numeric_scale": 0,
          "nullable": false,
          "business_key": false
        }
      ]
    },
    {
      "table_identifier": "dbo.BUDGETPLANLINE",
      "columns": [
        {
          "column_name": "BUDGETPLANHEADER",
          "data_type": "bigint",
          "character_maximum_length": null,
          "numeric_precision": 19,
          "numeric_scale": 0,
          "nullable": false,
          "business_key": false
        },
        {
          "column_name": "RECVERSION",
          "data_type": "int",
          "character_maximum_length": null,
          "numeric_precision": 10,
          "numeric_scale": 0,
          "nullable": false,
          "business_key": false
        },
        {
          "column_name": "PARTITION",
          "data_type": "bigint",
          "character_maximum_length": null,
          "numeric_precision": 19,
          "numeric_scale": 0,
          "nullable": false,
          "business_key": false
        },
        {
          "column_name": "RECID",
          "data_type": "bigint",
          "character_maximum_length": null,
          "numeric_precision": 19,
          "numeric_scale": 0,
          "nullable": false,
          "business_key": false
        }
      ]
    }
	
  ]
}