{
  "connection_types": [
    {
      "category": "AX",
      "name": "AX2012R3"
    }
  ],
  "tables": [
    {
      "table_identifier": "dbo.ASSETTABLE",
      "columns": [
        {
          "column_name": "ASSETID",
          "data_type": "nvarchar",
          "character_maximum_length": 20,
          "numeric_precision": null,
          "numeric_scale": null,
          "nullable": false,
          "business_key": true
        },
        {
          "column_name": "ASSETGROUP",
          "data_type": "nvarchar",
          "character_maximum_length": 10,
          "numeric_precision": null,
          "numeric_scale": null,
          "nullable": false,
          "business_key": false
        },
        {
          "column_name": "NAME",
          "data_type": "nvarchar",
          "character_maximum_length": 30,
          "numeric_precision": null,
          "numeric_scale": null,
          "nullable": false,
          "business_key": false
        },
        {
          "column_name": "LOCATION",
          "data_type": "nvarchar",
          "character_maximum_length": 10,
          "numeric_precision": null,
          "numeric_scale": null,
          "nullable": false,
          "business_key": false
        },
        {
          "column_name": "ASSETTYPE",
          "data_type": "int",
          "character_maximum_length": null,
          "numeric_precision": 10,
          "numeric_scale": 0,
          "nullable": false,
          "business_key": false
        },
        {
          "column_name": "MAJORTYPE",
          "data_type": "nvarchar",
          "character_maximum_length": 20,
          "numeric_precision": null,
          "numeric_scale": null,
          "nullable": false,
          "business_key": false
        },
        {
          "column_name": "PROPERTYTYPE",
          "data_type": "int",
          "character_maximum_length": null,
          "numeric_precision": 10,
          "numeric_scale": 0,
          "nullable": false,
          "business_key": false
        },
        {
          "column_name": "WORKERRESPONSIBLE",
          "data_type": "bigint",
          "character_maximum_length": null,
          "numeric_precision": 19,
          "numeric_scale": 0,
          "nullable": false,
          "business_key": false
        },
        {
          "column_name": "MODIFIEDDATETIME",
          "data_type": "datetime",
          "character_maximum_length": null,
          "numeric_precision": null,
          "numeric_scale": null,
          "nullable": false,
          "business_key": false
        },
        {
          "column_name": "RECID",
          "data_type": "bigint",
          "character_maximum_length": null,
          "numeric_precision": 19,
          "numeric_scale": 0,
          "nullable": false,
          "business_key": false
        },
        {
          "column_name": "DATAAREAID",
          "data_type": "nvarchar",
          "character_maximum_length": 4,
          "numeric_precision": null,
          "numeric_scale": null,
          "nullable": false,
          "business_key": true
        },
        {
          "column_name": "RECVERSION",
          "data_type": "int",
          "character_maximum_length": null,
          "numeric_precision": 10,
          "numeric_scale": 0,
          "nullable": false,
          "business_key": false
        },
        {
          "column_name": "PARTITION",
          "data_type": "bigint",
          "character_maximum_length": null,
          "numeric_precision": 10,
          "numeric_scale": 0,
          "nullable": false,
          "business_key": true
        }
      ],
      "indexes": []
    },
    {
      "table_identifier": "dbo.DIRPARTYTABLE",
      "columns": [
        {
          "column_name": "NAME",
          "data_type": "nvarchar",
          "character_maximum_length": 100,
          "numeric_precision": null,
          "numeric_scale": null,
          "nullable": false,
          "business_key": false
        },
        {
          "column_name": "PARTYNUMBER",
          "data_type": "nvarchar",
          "character_maximum_length": 40,
          "numeric_precision": null,
          "numeric_scale": null,
          "nullable": false,
          "business_key": false
        },
        {
          "column_name": "MODIFIEDDATETIME",
          "data_type": "datetime",
          "character_maximum_length": null,
          "numeric_precision": null,
          "numeric_scale": null,
          "nullable": false,
          "business_key": false
        },
        {
          "column_name": "RECVERSION",
          "data_type": "int",
          "character_maximum_length": null,
          "numeric_precision": 10,
          "numeric_scale": 0,
          "nullable": false,
          "business_key": false
        },
        {
          "column_name": "PARTITION",
          "data_type": "bigint",
          "character_maximum_length": null,
          "numeric_precision": 10,
          "numeric_scale": 0,
          "nullable": false,
          "business_key": false
        },
        {
          "column_name": "RECID",
          "data_type": "bigint",
          "character_maximum_length": null,
          "numeric_precision": 19,
          "numeric_scale": 0,
          "nullable": false,
          "business_key": true
        }
      ],
      "indexes": []
    },
    {
      "table_identifier": "dbo.ASSETLOCATION",
      "columns": [
        {
          "column_name": "DATAAREAID",
          "data_type": "nvarchar",
          "character_maximum_length": 4,
          "numeric_precision": null,
          "numeric_scale": null,
          "nullable": false,
          "business_key": true
        },
        {
          "column_name": "RECVERSION",
          "data_type": "int",
          "character_maximum_length": null,
          "numeric_precision": 10,
          "numeric_scale": 0,
          "nullable": false,
          "business_key": false
        },
        {
          "column_name": "RECID",
          "data_type": "bigint",
          "character_maximum_length": null,
          "numeric_precision": 19,
          "numeric_scale": 0,
          "nullable": false,
          "business_key": false
        },
        {
          "column_name": "NAME",
          "data_type": "nvarchar",
          "character_maximum_length": 30,
          "numeric_precision": null,
          "numeric_scale": null,
          "nullable": false,
          "business_key": false
        },
        {
          "column_name": "LOCATION",
          "data_type": "nvarchar",
          "character_maximum_length": 10,
          "numeric_precision": null,
          "numeric_scale": null,
          "nullable": false,
          "business_key": true
        },
        {
          "column_name": "PARTITION",
          "data_type": "bigint",
          "character_maximum_length": null,
          "numeric_precision": 10,
          "numeric_scale": 0,
          "nullable": false,
          "business_key": true
        }
      ],
      "indexes": []
    },
    {
      "table_identifier": "dbo.HCMWORKER",
      "columns": [
        {
          "column_name": "PERSON",
          "data_type": "bigint",
          "character_maximum_length": null,
          "numeric_precision": 19,
          "numeric_scale": 0,
          "nullable": false,
          "business_key": false
        },
        {
          "column_name": "PERSONNELNUMBER",
          "data_type": "nvarchar",
          "character_maximum_length": 25,
          "numeric_precision": null,
          "numeric_scale": null,
          "nullable": false,
          "business_key": false
        },
        {
          "column_name": "MODIFIEDDATETIME",
          "data_type": "datetime",
          "character_maximum_length": null,
          "numeric_precision": null,
          "numeric_scale": null,
          "nullable": false,
          "business_key": false
        },
        {
          "column_name": "RECVERSION",
          "data_type": "int",
          "character_maximum_length": null,
          "numeric_precision": 10,
          "numeric_scale": 0,
          "nullable": false,
          "business_key": false
        },
        {
          "column_name": "PARTITION",
          "data_type": "bigint",
          "character_maximum_length": null,
          "numeric_precision": 10,
          "numeric_scale": 0,
          "nullable": false,
          "business_key": false
        },
        {
          "column_name": "RECID",
          "data_type": "bigint",
          "character_maximum_length": null,
          "numeric_precision": 19,
          "numeric_scale": 0,
          "nullable": false,
          "business_key": true
        }
      ],
      "indexes": []
    },
    {
      "table_identifier": "dbo.ASSETMAJORTYPE",
      "columns": [
        {
          "column_name": "DESCRIPTION",
          "data_type": "nvarchar",
          "character_maximum_length": 60,
          "numeric_precision": null,
          "numeric_scale": null,
          "nullable": false,
          "business_key": false
        },
        {
          "column_name": "RECVERSION",
          "data_type": "int",
          "character_maximum_length": null,
          "numeric_precision": 10,
          "numeric_scale": 0,
          "nullable": false,
          "business_key": false
        },
        {
          "column_name": "PARTITION",
          "data_type": "bigint",
          "character_maximum_length": null,
          "numeric_precision": 10,
          "numeric_scale": 0,
          "nullable": false,
          "business_key": true
        },
        {
          "column_name": "RECID",
          "data_type": "bigint",
          "character_maximum_length": null,
          "numeric_precision": 19,
          "numeric_scale": 0,
          "nullable": false,
          "business_key": false
        },
        {
          "column_name": "DATAAREAID",
          "data_type": "nvarchar",
          "character_maximum_length": 4,
          "numeric_precision": null,
          "numeric_scale": null,
          "nullable": false,
          "business_key": true
        },
        {
          "column_name": "MAJORTYPE",
          "data_type": "nvarchar",
          "character_maximum_length": 20,
          "numeric_precision": null,
          "numeric_scale": null,
          "nullable": false,
          "business_key": true
        }
      ],
      "indexes": []
    },
    {
      "table_identifier": "dbo.ASSETGROUP",
      "columns": [
        {
          "column_name": "NAME",
          "data_type": "nvarchar",
          "character_maximum_length": 30,
          "numeric_precision": null,
          "numeric_scale": null,
          "nullable": false,
          "business_key": false
        },
        {
          "column_name": "RECVERSION",
          "data_type": "int",
          "character_maximum_length": null,
          "numeric_precision": 10,
          "numeric_scale": 0,
          "nullable": false,
          "business_key": false
        },
        {
          "column_name": "RECID",
          "data_type": "bigint",
          "character_maximum_length": null,
          "numeric_precision": 19,
          "numeric_scale": 0,
          "nullable": false,
          "business_key": false
        },
        {
          "column_name": "DATAAREAID",
          "data_type": "nvarchar",
          "character_maximum_length": 4,
          "numeric_precision": null,
          "numeric_scale": null,
          "nullable": false,
          "business_key": true
        },
        {
          "column_name": "PARTITION",
          "data_type": "bigint",
          "character_maximum_length": null,
          "numeric_precision": 10,
          "numeric_scale": 0,
          "nullable": false,
          "business_key": true
        },
        {
          "column_name": "GROUPID",
          "data_type": "nvarchar",
          "character_maximum_length": 10,
          "numeric_precision": null,
          "numeric_scale": null,
          "nullable": false,
          "business_key": true
        }
      ],
      "indexes": []
    }
  ]
}