{
  "name": "SalesInvoice",
  "columns": [
    {
      "name": "CompanyID",
      "dataType": "int64",
      "isHidden": true,
      "sourceColumn": "CompanyID",
      "sourceProviderType": "Integer"
    },
    {
      "name": "ComponentExecutionID",
      "dataType": "int64",
      "isHidden": true,
      "sourceColumn": "ComponentExecutionID",
      "sourceProviderType": "Integer"
    },
    {
      "name": "DataConnectionID",
      "dataType": "int64",
      "isHidden": true,
      "sourceColumn": "DataConnectionID",
      "sourceProviderType": "Integer"
    },
    {
      "name": "Partition",
      "dataType": "int64",
      "isHidden": true,
      "sourceColumn": "Partition",
      "sourceProviderType": "BigInt"
    },
    {
      "name": "SalesInvoice",
      "dataType": "string",
      "sourceColumn": "SalesInvoice",
      "sourceProviderType": "WChar",
      "annotations": [
        {
          "name": "TabularEditor_TranslatedNames",
          "value": "{\"en-US\":\"Sales Invoice\"}"
        }
      ]
    },
    {
      "name": "SalesInvoiceID",
      "dataType": "int64",
      "isHidden": true,
      "sourceColumn": "SalesInvoiceID",
      "sourceProviderType": "Integer"
    },
    {
      "name": "InvoiceDate",
      "dataType": "dateTime",
      "sourceColumn": "InvoiceDate"
    },
    {
      "name": "ClosedDate",
      "dataType": "dateTime",
      "sourceColumn": "ClosedDate"
    },
    {
      "name": "DueDate",
      "dataType": "dateTime",
      "sourceColumn": "DueDate"
    }
  ],
  "partitions": [
    {
      "name": "SalesInvoice1",
      "dataView": "full",
      "source": {
        "type": "query",
        "query": " SELECT [dim].[SalesInvoice].* FROM [dim].[SalesInvoice] ",
        "dataSource": "Birds"
      },
      "annotations": [
        {
          "name": "TableWidgetSerialization",
          "value": [
            "<?xml version=\"1.0\" encoding=\"UTF-16\"?><Gemini xmlns=\"TableWidgetSerialization\"><AnnotationContent><![CDATA[<?xml version=\"1.0\"?>",
            "<TableWidgetGridSerialization xmlns:xsi=\"http://www.w3.org/2001/XMLSchema-instance\" xmlns:xsd=\"http://www.w3.org/2001/XMLSchema\">",
            "  <ColumnSuggestedType />",
            "  <ColumnFormat />",
            "  <ColumnAccuracy />",
            "  <ColumnCurrencySymbol />",
            "  <ColumnPositivePattern />",
            "  <ColumnNegativePattern />",
            "  <ColumnWidths>",
            "    <item>",
            "      <key>",
            "        <string>SalesInvoiceID</string>",
            "      </key>",
            "      <value>",
            "        <int>101</int>",
            "      </value>",
            "    </item>",
            "    <item>",
            "      <key>",
            "        <string>StageID</string>",
            "      </key>",
            "      <value>",
            "        <int>69</int>",
            "      </value>",
            "    </item>",
            "    <item>",
            "      <key>",
            "        <string>DataConnectionID</string>",
            "      </key>",
            "      <value>",
            "        <int>118</int>",
            "      </value>",
            "    </item>",
            "    <item>",
            "      <key>",
            "        <string>CompanyID</string>",
            "      </key>",
            "      <value>",
            "        <int>86</int>",
            "      </value>",
            "    </item>",
            "    <item>",
            "      <key>",
            "        <string>ExecutionTimestamp</string>",
            "      </key>",
            "      <value>",
            "        <int>128</int>",
            "      </value>",
            "    </item>",
            "    <item>",
            "      <key>",
            "        <string>Partition</string>",
            "      </key>",
            "      <value>",
            "        <int>70</int>",
            "      </value>",
            "    </item>",
            "    <item>",
            "      <key>",
            "        <string>ComponentExecutionID</string>",
            "      </key>",
            "      <value>",
            "        <int>143</int>",
            "      </value>",
            "    </item>",
            "    <item>",
            "      <key>",
            "        <string>SalesInvoice</string>",
            "      </key>",
            "      <value>",
            "        <int>90</int>",
            "      </value>",
            "    </item>",
            "    <item>",
            "      <key>",
            "        <string>SalesOrderCode</string>",
            "      </key>",
            "      <value>",
            "        <int>108</int>",
            "      </value>",
            "    </item>",
            "    <item>",
            "      <key>",
            "        <string>InvoiceDate</string>",
            "      </key>",
            "      <value>",
            "        <int>88</int>",
            "      </value>",
            "    </item>",
            "    <item>",
            "      <key>",
            "        <string>NumberSequenceGroup</string>",
            "      </key>",
            "      <value>",
            "        <int>143</int>",
            "      </value>",
            "    </item>",
            "  </ColumnWidths>",
            "  <ColumnDisplayIndex>",
            "    <item>",
            "      <key>",
            "        <string>SalesInvoiceID</string>",
            "      </key>",
            "      <value>",
            "        <int>0</int>",
            "      </value>",
            "    </item>",
            "    <item>",
            "      <key>",
            "        <string>StageID</string>",
            "      </key>",
            "      <value>",
            "        <int>1</int>",
            "      </value>",
            "    </item>",
            "    <item>",
            "      <key>",
            "        <string>DataConnectionID</string>",
            "      </key>",
            "      <value>",
            "        <int>2</int>",
            "      </value>",
            "    </item>",
            "    <item>",
            "      <key>",
            "        <string>CompanyID</string>",
            "      </key>",
            "      <value>",
            "        <int>3</int>",
            "      </value>",
            "    </item>",
            "    <item>",
            "      <key>",
            "        <string>ExecutionTimestamp</string>",
            "      </key>",
            "      <value>",
            "        <int>4</int>",
            "      </value>",
            "    </item>",
            "    <item>",
            "      <key>",
            "        <string>Partition</string>",
            "      </key>",
            "      <value>",
            "        <int>5</int>",
            "      </value>",
            "    </item>",
            "    <item>",
            "      <key>",
            "        <string>ComponentExecutionID</string>",
            "      </key>",
            "      <value>",
            "        <int>6</int>",
            "      </value>",
            "    </item>",
            "    <item>",
            "      <key>",
            "        <string>SalesInvoice</string>",
            "      </key>",
            "      <value>",
            "        <int>7</int>",
            "      </value>",
            "    </item>",
            "    <item>",
            "      <key>",
            "        <string>SalesOrderCode</string>",
            "      </key>",
            "      <value>",
            "        <int>8</int>",
            "      </value>",
            "    </item>",
            "    <item>",
            "      <key>",
            "        <string>InvoiceDate</string>",
            "      </key>",
            "      <value>",
            "        <int>9</int>",
            "      </value>",
            "    </item>",
            "    <item>",
            "      <key>",
            "        <string>NumberSequenceGroup</string>",
            "      </key>",
            "      <value>",
            "        <int>10</int>",
            "      </value>",
            "    </item>",
            "  </ColumnDisplayIndex>",
            "  <ColumnFrozen />",
            "  <ColumnChecked>",
            "    <item>",
            "      <key>",
            "        <string>StageID</string>",
            "      </key>",
            "      <value>",
            "        <boolean>false</boolean>",
            "      </value>",
            "    </item>",
            "    <item>",
            "      <key>",
            "        <string>ExecutionTimestamp</string>",
            "      </key>",
            "      <value>",
            "        <boolean>false</boolean>",
            "      </value>",
            "    </item>",
            "    <item>",
            "      <key>",
            "        <string>SalesOrderCode</string>",
            "      </key>",
            "      <value>",
            "        <boolean>false</boolean>",
            "      </value>",
            "    </item>",
            "    <item>",
            "      <key>",
            "        <string>InvoiceDate</string>",
            "      </key>",
            "      <value>",
            "        <boolean>false</boolean>",
            "      </value>",
            "    </item>",
            "    <item>",
            "      <key>",
            "        <string>NumberSequenceGroup</string>",
            "      </key>",
            "      <value>",
            "        <boolean>false</boolean>",
            "      </value>",
            "    </item>",
            "  </ColumnChecked>",
            "  <ColumnFilter />",
            "  <SelectionFilter />",
            "  <FilterParameters />",
            "  <IsSortDescending>false</IsSortDescending>",
            "</TableWidgetGridSerialization>]]></AnnotationContent></Gemini>"
          ]
        }
      ]
    }
  ],
  "annotations": [
    {
      "name": "_TM_ExtProp_QueryDefinition",
      "value": " SELECT [dim].[SalesInvoice].[SalesInvoiceID],[dim].[SalesInvoice].[DataConnectionID],[dim].[SalesInvoice].[CompanyID],[dim].[SalesInvoice].[Partition],[dim].[SalesInvoice].[ComponentExecutionID],[dim].[SalesInvoice].[SalesInvoice] FROM [dim].[SalesInvoice] "
    },
    {
      "name": "_TM_ExtProp_DbTableName",
      "value": "SalesInvoice"
    },
    {
      "name": "_TM_ExtProp_DbSchemaName",
      "value": "dim"
    },
    {
      "name": "TableWidgetSerialization",
      "value": [
        "<?xml version=\"1.0\" encoding=\"UTF-16\"?><Gemini xmlns=\"TableWidgetSerialization\"><AnnotationContent><![CDATA[<?xml version=\"1.0\"?>",
        "<TableWidgetGridSerialization xmlns:xsi=\"http://www.w3.org/2001/XMLSchema-instance\" xmlns:xsd=\"http://www.w3.org/2001/XMLSchema\">",
        "  <ColumnSuggestedType />",
        "  <ColumnFormat />",
        "  <ColumnAccuracy />",
        "  <ColumnCurrencySymbol />",
        "  <ColumnPositivePattern />",
        "  <ColumnNegativePattern />",
        "  <ColumnWidths>",
        "    <item>",
        "      <key>",
        "        <string>SalesInvoiceID</string>",
        "      </key>",
        "      <value>",
        "        <int>101</int>",
        "      </value>",
        "    </item>",
        "    <item>",
        "      <key>",
        "        <string>StageID</string>",
        "      </key>",
        "      <value>",
        "        <int>69</int>",
        "      </value>",
        "    </item>",
        "    <item>",
        "      <key>",
        "        <string>DataConnectionID</string>",
        "      </key>",
        "      <value>",
        "        <int>118</int>",
        "      </value>",
        "    </item>",
        "    <item>",
        "      <key>",
        "        <string>CompanyID</string>",
        "      </key>",
        "      <value>",
        "        <int>86</int>",
        "      </value>",
        "    </item>",
        "    <item>",
        "      <key>",
        "        <string>ExecutionTimestamp</string>",
        "      </key>",
        "      <value>",
        "        <int>128</int>",
        "      </value>",
        "    </item>",
        "    <item>",
        "      <key>",
        "        <string>Partition</string>",
        "      </key>",
        "      <value>",
        "        <int>70</int>",
        "      </value>",
        "    </item>",
        "    <item>",
        "      <key>",
        "        <string>ComponentExecutionID</string>",
        "      </key>",
        "      <value>",
        "        <int>143</int>",
        "      </value>",
        "    </item>",
        "    <item>",
        "      <key>",
        "        <string>SalesInvoice</string>",
        "      </key>",
        "      <value>",
        "        <int>90</int>",
        "      </value>",
        "    </item>",
        "    <item>",
        "      <key>",
        "        <string>SalesOrderCode</string>",
        "      </key>",
        "      <value>",
        "        <int>108</int>",
        "      </value>",
        "    </item>",
        "    <item>",
        "      <key>",
        "        <string>InvoiceDate</string>",
        "      </key>",
        "      <value>",
        "        <int>88</int>",
        "      </value>",
        "    </item>",
        "    <item>",
        "      <key>",
        "        <string>NumberSequenceGroup</string>",
        "      </key>",
        "      <value>",
        "        <int>143</int>",
        "      </value>",
        "    </item>",
        "  </ColumnWidths>",
        "  <ColumnDisplayIndex>",
        "    <item>",
        "      <key>",
        "        <string>SalesInvoiceID</string>",
        "      </key>",
        "      <value>",
        "        <int>0</int>",
        "      </value>",
        "    </item>",
        "    <item>",
        "      <key>",
        "        <string>StageID</string>",
        "      </key>",
        "      <value>",
        "        <int>1</int>",
        "      </value>",
        "    </item>",
        "    <item>",
        "      <key>",
        "        <string>DataConnectionID</string>",
        "      </key>",
        "      <value>",
        "        <int>2</int>",
        "      </value>",
        "    </item>",
        "    <item>",
        "      <key>",
        "        <string>CompanyID</string>",
        "      </key>",
        "      <value>",
        "        <int>3</int>",
        "      </value>",
        "    </item>",
        "    <item>",
        "      <key>",
        "        <string>ExecutionTimestamp</string>",
        "      </key>",
        "      <value>",
        "        <int>4</int>",
        "      </value>",
        "    </item>",
        "    <item>",
        "      <key>",
        "        <string>Partition</string>",
        "      </key>",
        "      <value>",
        "        <int>5</int>",
        "      </value>",
        "    </item>",
        "    <item>",
        "      <key>",
        "        <string>ComponentExecutionID</string>",
        "      </key>",
        "      <value>",
        "        <int>6</int>",
        "      </value>",
        "    </item>",
        "    <item>",
        "      <key>",
        "        <string>SalesInvoice</string>",
        "      </key>",
        "      <value>",
        "        <int>7</int>",
        "      </value>",
        "    </item>",
        "    <item>",
        "      <key>",
        "        <string>SalesOrderCode</string>",
        "      </key>",
        "      <value>",
        "        <int>8</int>",
        "      </value>",
        "    </item>",
        "    <item>",
        "      <key>",
        "        <string>InvoiceDate</string>",
        "      </key>",
        "      <value>",
        "        <int>9</int>",
        "      </value>",
        "    </item>",
        "    <item>",
        "      <key>",
        "        <string>NumberSequenceGroup</string>",
        "      </key>",
        "      <value>",
        "        <int>10</int>",
        "      </value>",
        "    </item>",
        "  </ColumnDisplayIndex>",
        "  <ColumnFrozen />",
        "  <ColumnChecked>",
        "    <item>",
        "      <key>",
        "        <string>StageID</string>",
        "      </key>",
        "      <value>",
        "        <boolean>false</boolean>",
        "      </value>",
        "    </item>",
        "    <item>",
        "      <key>",
        "        <string>ExecutionTimestamp</string>",
        "      </key>",
        "      <value>",
        "        <boolean>false</boolean>",
        "      </value>",
        "    </item>",
        "    <item>",
        "      <key>",
        "        <string>SalesOrderCode</string>",
        "      </key>",
        "      <value>",
        "        <boolean>false</boolean>",
        "      </value>",
        "    </item>",
        "    <item>",
        "      <key>",
        "        <string>InvoiceDate</string>",
        "      </key>",
        "      <value>",
        "        <boolean>false</boolean>",
        "      </value>",
        "    </item>",
        "    <item>",
        "      <key>",
        "        <string>NumberSequenceGroup</string>",
        "      </key>",
        "      <value>",
        "        <boolean>false</boolean>",
        "      </value>",
        "    </item>",
        "  </ColumnChecked>",
        "  <ColumnFilter />",
        "  <SelectionFilter />",
        "  <FilterParameters />",
        "  <IsSortDescending>false</IsSortDescending>",
        "</TableWidgetGridSerialization>]]></AnnotationContent></Gemini>"
      ]
    },
    {
      "name": "TabularEditor_TranslatedNames",
      "value": "{\"en-US\":\"Sales Invoice\"}"
    }
  ]
}