{
  "name": "FixedAsset",
  "columns": [
    {
      "name": "FixedAssetID",
      "dataType": "int64",
      "isHidden": true,
      "sourceColumn": "FixedAssetID"
    },
    {
      "name": "StageID",
      "dataType": "int64",
      "isHidden": true,
      "sourceColumn": "StageID"
    },
    {
      "name": "DataConnectionID",
      "dataType": "int64",
      "isHidden": true,
      "sourceColumn": "DataConnectionID"
    },
    {
      "name": "CompanyID",
      "dataType": "int64",
      "isHidden": true,
      "sourceColumn": "CompanyID"
    },
    {
      "name": "Partition",
      "dataType": "int64",
      "isHidden": true,
      "sourceColumn": "Partition"
    },
    {
      "name": "ExecutionTimestamp",
      "dataType": "string",
      "isHidden": true,
      "sourceColumn": "ExecutionTimestamp"
    },
    {
      "name": "ComponentExecutionID",
      "dataType": "int64",
      "isHidden": true,
      "sourceColumn": "ComponentExecutionID"
    },
    {
      "name": "FixedAssetCode",
      "dataType": "string",
      "isHidden": true,
      "sourceColumn": "FixedAssetCode"
    },
    {
      "name": "FixedAssetName",
      "dataType": "string",
      "isHidden": true,
      "sourceColumn": "FixedAssetName",
      "annotations": [
        {
          "name": "TabularEditor_TranslatedNames",
          "value": "{\"en-US\":\"Fixed Asset\"}"
        }
      ]
    },
    {
      "name": "FixedAssetCodeName",
      "dataType": "string",
      "sourceColumn": "FixedAssetCodeName",
      "annotations": [
        {
          "name": "TabularEditor_TranslatedNames",
          "value": "{\"en-US\":\"Fixed Asset\"}"
        }
      ]
    },
    {
      "name": "FixedAssetGroupCode",
      "dataType": "string",
      "isHidden": true,
      "sourceColumn": "FixedAssetGroupCode",
      "annotations": [
        {
          "name": "TabularEditor_TranslatedNames",
          "value": "{\"en-US\":\"Fixed Asset Group\"}"
        }
      ]
    },
    {
      "name": "FixedAssetGroupName",
      "dataType": "string",
      "isHidden": true,
      "sourceColumn": "FixedAssetGroupName",
      "annotations": [
        {
          "name": "TabularEditor_TranslatedNames",
          "value": "{\"en-US\":\"Fixed Asset Group\"}"
        }
      ]
    },
    {
      "name": "FixedAssetGroupCodeName",
      "dataType": "string",
      "sourceColumn": "FixedAssetGroupCodeName",
      "annotations": [
        {
          "name": "TabularEditor_TranslatedNames",
          "value": "{\"en-US\":\"Fixed Asset Group\"}"
        }
      ]
    },
    {
      "name": "FixedAssetTypeCode",
      "dataType": "int64",
      "isHidden": true,
      "sourceColumn": "FixedAssetTypeCode"
    },
    {
      "name": "FixedAssetTypeDescription",
      "dataType": "string",
      "sourceColumn": "FixedAssetTypeDescription",
      "annotations": [
        {
          "name": "TabularEditor_TranslatedNames",
          "value": "{\"en-US\":\"Fixed Asset Type\"}"
        }
      ]
    },
    {
      "name": "FixedAssetMajorTypeCode",
      "dataType": "string",
      "isHidden": true,
      "sourceColumn": "FixedAssetMajorTypeCode"
    },
    {
      "name": "FixedAssetMajorTypeDescription",
      "dataType": "string",
      "sourceColumn": "FixedAssetMajorTypeDescription",
      "annotations": [
        {
          "name": "TabularEditor_TranslatedNames",
          "value": "{\"en-US\":\"Fixed Asset Major Type\"}"
        }
      ]
    },
    {
      "name": "FixedAssetMajorTypeCodeDescription",
      "dataType": "string",
      "sourceColumn": "FixedAssetMajorTypeCodeDescription",
      "annotations": [
        {
          "name": "TabularEditor_TranslatedNames",
          "value": "{\"en-US\":\"Fixed Asset Major Type\"}"
        }
      ]
    },
    {
      "name": "FixedAssetPropertyTypeCode",
      "dataType": "int64",
      "isHidden": true,
      "sourceColumn": "FixedAssetPropertyTypeCode"
    },
    {
      "name": "FixedAssetPropertyTypeDescription",
      "dataType": "string",
      "sourceColumn": "FixedAssetPropertyTypeDescription",
      "annotations": [
        {
          "name": "TabularEditor_TranslatedNames",
          "value": "{\"en-US\":\"Fixed Asset Property Type\"}"
        }
      ]
    },
    {
      "name": "FixedAssetResponsibleCode",
      "dataType": "string",
      "isHidden": true,
      "sourceColumn": "FixedAssetResponsibleCode"
    },
    {
      "name": "FixedAssetResponsibleName",
      "dataType": "string",
      "isHidden": true,
      "sourceColumn": "FixedAssetResponsibleName",
      "annotations": [
        {
          "name": "TabularEditor_TranslatedNames",
          "value": "{\"en-US\":\"Fixed Asset Responsible\"}"
        }
      ]
    },
    {
      "name": "FixedAssetResponsibleCodeName",
      "dataType": "string",
      "sourceColumn": "FixedAssetResponsibleCodeName",
      "annotations": [
        {
          "name": "TabularEditor_TranslatedNames",
          "value": "{\"en-US\":\"Fixed Asset Responsible\"}"
        }
      ]
    },
    {
      "name": "FixedAssetLocationCode",
      "dataType": "string",
      "isHidden": true,
      "sourceColumn": "FixedAssetLocationCode"
    },
    {
      "name": "FixedAssetLocationName",
      "dataType": "string",
      "sourceColumn": "FixedAssetLocationName",
      "annotations": [
        {
          "name": "TabularEditor_TranslatedNames",
          "value": "{\"en-US\":\"Fixed Asset Location\"}"
        }
      ]
    },
    {
      "name": "FixedAssetLocationCodeName",
      "dataType": "string",
      "isHidden": true,
      "sourceColumn": "FixedAssetLocationCodeName"
    }
  ],
  "partitions": [
    {
      "name": "New Partition",
      "source": {
        "type": "query",
        "query": "SELECT * FROM dim.FixedAsset",
        "dataSource": "Birds"
      }
    }
  ],
  "annotations": [
    {
      "name": "TabularEditor_TranslatedNames",
      "value": "{\"en-US\":\"Fixed Asset\"}"
    }
  ]
}