{
  "instance": "Live_AX_AX2012R3",
  "environment": "test",
  "start_year": 2002,
  "offset": 0,
  "source_connections": [
    {
      "name": "Live_AX_AX2012R3",
      "server": "192.168.36.60",
      "instance": null,
      "database": "MicrosoftDynamicsAX",
      "is_sql_auth": true,
      "user": "birds_user",
      "password": "sqlpass",
      "connection_type": "AX2012R3"
    }
  ],
  "companies": [
    {
      "code": "usmf"
    },
    {
      "code": "usp2"
    },
    {
      "code": "uspi"
    },
    {
      "code": "usrt"
    }
  ]
}