{
  "base_name": "PostingLayer",
  "category": "dim",
  "database_object": {
    "table_identifier": "dim.PostingLayer",
    "columns": [
      {
        "column_name": "PostingLayerID",
        "data_type": "int",
        "character_maximum_length": 0,
        "numeric_precision": 10,
        "numeric_scale": 0,
        "nullable": false,
        "business_key": false
      },
      {
        "column_name": "DataConnectionID",
        "data_type": "int",
        "character_maximum_length": 0,
        "numeric_precision": 10,
        "numeric_scale": 0,
        "nullable": false,
        "business_key": false
      },
      {
        "column_name": "ExecutionTimestamp",
        "data_type": "timestamp",
        "character_maximum_length": 0,
        "numeric_precision": 0,
        "numeric_scale": 0,
        "nullable": false,
        "business_key": false
      },
      {
        "column_name": "ComponentExecutionID",
        "data_type": "int",
        "character_maximum_length": 0,
        "numeric_precision": 10,
        "numeric_scale": 0,
        "nullable": false,
        "business_key": false
      },
      {
        "column_name": "PostingLayerCode",
        "data_type": "int",
        "character_maximum_length": 0,
        "numeric_precision": 10,
        "numeric_scale": 0,
        "nullable": false,
        "business_key": false
      },
      {
        "column_name": "PostingLayerDesc",
        "data_type": "nvarchar",
        "character_maximum_length": 128,
        "numeric_precision": 0,
        "numeric_scale": 0,
        "nullable": true,
        "business_key": false
      }
    ],
    "indexes": [
      {
        "name": "ix_c_dim_postinglayer",
        "type": "Clustered",
        "columns": [
          "PostingLayerCode",
          "DataConnectionID"
        ],
        "included_columns": [
          ""
        ],
        "fill_factor": 90,
        "is_unique": false
      }
    ]
  },
  "validation": null, 
  "load_procedures": null,
  "views": null
}