{
  "name": "ForecastCostPriceSF",
  "description": "Sum of forecast cost price, in transaction currency",
  "expression": [
    "SUM ( 'factSalesForecast'[ForecastCostPrice] )",
    "",
    ""
  ],
  "formatString": "#,##0.00",
  "displayFolder": "Σ Transaction Currency",
  "annotations": [
    {
      "name": "TabularEditor_TranslatedNames",
      "value": "{\"en-US\":\"Forecast Cost Price\"}"
    }
  ]
}