{
  "name": "ForecastPriceUnitSF",
  "description": "Sum of forecast price unit, in transaction currency",
  "expression": [
    "SUM ( 'factSalesForecast'[ForecastPriceUnit] )",
    "",
    ""
  ],
  "formatString": "#,##0.00",
  "displayFolder": "Σ Transaction Currency",
  "annotations": [
    {
      "name": "TabularEditor_TranslatedNames",
      "value": "{\"en-US\":\"Forecast Price Unit\"}"
    }
  ]
}