{
  "name": "ForecastCostPrice_SF",
  "description": "Sum of forecast cost price",
  "expression": [
    "SUM ( 'factSalesForecast'[ForecastCostPrice_RCY] )",
    "",
    ""
  ],
  "formatString": "#,##0.00",
  "annotations": [
    {
      "name": "TabularEditor_TranslatedNames",
      "value": "{\"en-US\":\"Forecast Cost Price\"}"
    }
  ]
}