{
  "name": "AccountingAmount_VT",
  "description": "Sum of all vendor transaction amounts in accounting currency.",
  "expression": "SUM ( 'factVendorTransaction'[AmountMST] )",
  "formatString": "#,##0.00",
  "displayFolder": "Σ Accounting Currency",
  "annotations": [
    {
      "name": "TabularEditor_TranslatedNames",
      "value": "{\"en-US\":\"Accounting Amount\"}"
    }
  ]
}