{
  "name": "AmountCredit_VT",
  "description": "Sum of credit amounts posted during selected period in reporting currency.",
  "expression": [
    "VAR OnlyCredit =",
    "    FILTER ( IsCredit, 'IsCredit'[YesNoCode] = 1 )",
    "RETURN",
    "    CALCULATE ( [Amount_VT], OnlyCredit )"
  ],
  "formatString": "#,##0.00",
  "annotations": [
    {
      "name": "TabularEditor_TranslatedNames",
      "value": "{\"en-US\":\"Amount Credit\"}"
    }
  ]
}