{
  "name": "AvgOverdueDaysYTD_VT",
  "description": "Average number of days that invoices were openfor all dates in current year up to current date.",
  "expression": [
    "VAR MaxDate =",
    "    MAX ( 'Date'[Date] )",
    "VAR MinDate =",
    "    CALCULATE (",
    "        MIN ( 'Date'[Date] ),",
    "        FILTER (",
    "            ALL ( 'Date' ),",
    "            'Date'[CYearNo] = MAX ( 'Date'[CYearNo] )",
    "                && 'Date'[DateID] <= MAX ( 'Date'[DateID] )",
    "        )",
    "    )",
    "RETURN",
    "    AVERAGEX (",
    "        ADDCOLUMNS (",
    "            FILTER (",
    "                PurchaseInvoice,",
    "                PurchaseInvoice[ClosedDate] > MinDate",
    "                    && PurchaseInvoice[InvoiceDate] <= MaxDate",
    "                    && PurchaseInvoice[PurchaseInvoiceID] <> 0",
    "                    && CONTAINS (",
    "                        CALCULATETABLE ( factVendorTransaction, ALL ( 'Date' ) ),",
    "                        factVendorTransaction[PurchaseInvoiceID], PurchaseInvoice[PurchaseInvoiceID]",
    "                    )",
    "            ),",
    "            \"OverdueDays\", IF (",
    "                PurchaseInvoice[ClosedDate] <= PurchaseInvoice[DueDate],",
    "                0,",
    "                IF (",
    "                    PurchaseInvoice[DueDate] <= MIN ( PurchaseInvoice[ClosedDate], MaxDate ),",
    "                    DATEDIFF (",
    "                        PurchaseInvoice[DueDate],",
    "                        MIN ( PurchaseInvoice[ClosedDate], MaxDate ),",
    "                        DAY",
    "                    ),",
    "                    IF (",
    "                        PurchaseInvoice[DueDate] <= MaxDate,",
    "                        DATEDIFF ( PurchaseInvoice[DueDate], MaxDate, DAY ),",
    "                        0",
    "                    )",
    "                )",
    "            )",
    "        ),",
    "        [OverdueDays]",
    "    )"
  ],
  "formatString": "#,##0.0",
  "displayFolder": "Σ YTD",
  "annotations": [
    {
      "name": "TabularEditor_TranslatedNames",
      "value": "{\"en-US\":\"Avg Overdue Days YTD\"}"
    },
    {
      "name": "TabularEditor_TranslatedDisplayFolders",
      "value": "{\"en-US\":\"Σ YTD\"}"
    }
  ]
}