{
  "name": "AvgOpenDaysLYTD_VT",
  "description": "Average number of days that invoices were open last year up to current date last year.",
  "expression": [
    "VAR MaxYear =",
    "    MAX ( 'Date'[CYearNo] ) - 1",
    "VAR MaxDate =",
    "    CALCULATE (",
    "        MAX ( 'Date'[Date] ),",
    "        FILTER (",
    "            ALL ( 'Date' ),",
    "            'Date'[CYearNo] = MaxYear",
    "                && 'Date'[Date] <= MAX ( 'Date'[TDatePY] )",
    "        )",
    "    )",
    "VAR MinDate =",
    "    CALCULATE (",
    "        MIN ( 'Date'[Date] ),",
    "        FILTER ( ALL ( 'Date' ), 'Date'[CYearNo] = MaxYear && 'Date'[Date] <= MaxDate )",
    "    )",
    "RETURN",
    "    AVERAGEX (",
    "        ADDCOLUMNS (",
    "            FILTER (",
    "                PurchaseInvoice,",
    "                PurchaseInvoice[ClosedDate] > MinDate",
    "                    && PurchaseInvoice[InvoiceDate] <= MaxDate",
    "                    && PurchaseInvoice[PurchaseInvoiceID] <> 0",
    "                    && CONTAINS (",
    "                        CALCULATETABLE ( factVendorTransaction, ALL ( 'Date' ) ),",
    "                        factVendorTransaction[PurchaseInvoiceID], PurchaseInvoice[PurchaseInvoiceID]",
    "                    )",
    "            ),",
    "            \"OpenDays\", DATEDIFF (",
    "                PurchaseInvoice[InvoiceDate],",
    "                MIN ( PurchaseInvoice[ClosedDate], MaxDate ),",
    "                DAY",
    "            )",
    "        ),",
    "        [OpenDays]",
    "    )"
  ],
  "formatString": "#,##0.0",
  "displayFolder": "Σ LYTD",
  "annotations": [
    {
      "name": "TabularEditor_TranslatedNames",
      "value": "{\"en-US\":\"Avg Open Days LYTD\"}"
    },
    {
      "name": "TabularEditor_TranslatedDisplayFolders",
      "value": "{\"en-US\":\"Σ LYTD\"}"
    }
  ]
}