{
  "name": "OverdueInvoiceAmount_VT",
  "description": "Open invoice amounts of overdue invoices at the end of the selected period.",
  "expression": [
    "VAR MaxDate =",
    "    MAX ( 'Date'[Date] )",
    "VAR MinDate =",
    "    MIN ( 'Date'[Date] )",
    "VAR AfterDue =",
    "    FILTER ( ALL ( 'Date' ), 'Date'[Date] < MaxDate )",
    "VAR AfterPosted =",
    "    FILTER (",
    "        PurchaseInvoice,",
    "        PurchaseInvoice[ClosedDate] > MaxDate",
    "            && PurchaseInvoice[DueDate] < MaxDate",
    "            && PurchaseInvoice[PurchaseInvoiceID] <> 0",
    "    )",
    "RETURN",
    "    VAR OverdueInvoiceAmount =",
    "        CALCULATE ( [Amount_VT], AfterDue, AfterPosted )",
    "    RETURN",
    "        IF ( OverdueInvoiceAmount <> 0, OverdueInvoiceAmount )"
  ],
  "formatString": "#,##0.00",
  "annotations": [
    {
      "name": "TabularEditor_TranslatedNames",
      "value": "{\"en-US\":\"Overdue Invoice Amount\"}"
    }
  ]
}