{
  "name": "PostedAmount_VT",
  "description": "Sum of credit amounts posted during selected period in reporting currency.",
  "expression": "[AmountDebit_VT]",
  "formatString": "#,##0.00",
  "annotations": [
    {
      "name": "TabularEditor_TranslatedNames",
      "value": "{\"en-US\":\"Posted Amount\"}"
    }
  ]
}