{
  "name": "YQMD",
  "levels": [
    {
      "name": "CYearDesc",
      "ordinal": 0,
      "column": "CYearDesc",
      "annotations": [
        {
          "name": "TabularEditor_TranslatedNames",
          "value": "{\"en-US\":\"Year\"}"
        }
      ]
    },
    {
      "name": "CQuarterDesc",
      "ordinal": 1,
      "column": "CQuarterDesc",
      "annotations": [
        {
          "name": "TabularEditor_TranslatedNames",
          "value": "{\"en-US\":\"Quarter\"}"
        }
      ]
    },
    {
      "name": "CMonthDesc",
      "ordinal": 2,
      "column": "CMonthDesc",
      "annotations": [
        {
          "name": "TabularEditor_TranslatedNames",
          "value": "{\"en-US\":\"Month\"}"
        }
      ]
    },
    {
      "name": "Date",
      "ordinal": 3,
      "column": "Date",
      "annotations": [
        {
          "name": "TabularEditor_TranslatedNames",
          "value": "{\"en-US\":\"Date\"}"
        }
      ]
    }
  ]
}