{
  "name": "Tracking",
  "columns": [
    {
      "name": "CompanyID",
      "dataType": "int64",
      "isHidden": true,
      "sourceColumn": "CompanyID",
      "sourceProviderType": "Integer"
    },
    {
      "name": "ComponentExecutionID",
      "dataType": "int64",
      "isHidden": true,
      "sourceColumn": "ComponentExecutionID",
      "sourceProviderType": "Integer"
    },
    {
      "name": "DataConnectionID",
      "dataType": "int64",
      "isHidden": true,
      "sourceColumn": "DataConnectionID",
      "sourceProviderType": "Integer"
    },
    {
      "name": "InventBatchCode",
      "dataType": "string",
      "isHidden": true,
      "sourceColumn": "InventBatchCode",
      "sourceProviderType": "WChar"
    },
    {
      "name": "InventBatchCodeDesc",
      "dataType": "string",
      "sourceColumn": "InventBatchCodeDesc",
      "sourceProviderType": "WChar",
      "annotations": [
        {
          "name": "TabularEditor_TranslatedNames",
          "value": "{\"en-US\":\"Invent Batch\"}"
        }
      ]
    },
    {
      "name": "InventBatchDesc",
      "dataType": "string",
      "isHidden": true,
      "sourceColumn": "InventBatchDesc",
      "sourceProviderType": "WChar"
    },
    {
      "name": "InventSerialCode",
      "dataType": "string",
      "isHidden": true,
      "sourceColumn": "InventSerialCode",
      "sourceProviderType": "WChar"
    },
    {
      "name": "InventSerialCodeDesc",
      "dataType": "string",
      "sourceColumn": "InventSerialCodeDesc",
      "sourceProviderType": "WChar",
      "annotations": [
        {
          "name": "TabularEditor_TranslatedNames",
          "value": "{\"en-US\":\"Invent Serial\"}"
        }
      ]
    },
    {
      "name": "InventSerialDesc",
      "dataType": "string",
      "isHidden": true,
      "sourceColumn": "InventSerialDesc",
      "sourceProviderType": "WChar"
    },
    {
      "name": "Partition",
      "dataType": "int64",
      "isHidden": true,
      "sourceColumn": "Partition",
      "sourceProviderType": "BigInt"
    },
    {
      "name": "SiteCode",
      "dataType": "string",
      "sourceColumn": "SiteCode",
      "sourceProviderType": "WChar",
      "annotations": [
        {
          "name": "TabularEditor_TranslatedNames",
          "value": "{\"en-US\":\"Site\"}"
        }
      ]
    },
    {
      "name": "TrackingID",
      "dataType": "int64",
      "isHidden": true,
      "sourceColumn": "TrackingID",
      "sourceProviderType": "Integer"
    }
  ],
  "partitions": [
    {
      "name": "Tracking",
      "dataView": "full",
      "source": {
        "type": "query",
        "query": " SELECT [dim].[Tracking].* FROM [dim].[Tracking] ",
        "dataSource": "Birds"
      }
    }
  ],
  "annotations": [
    {
      "name": "_TM_ExtProp_QueryDefinition",
      "value": " SELECT [dim].[Tracking].* FROM [dim].[Tracking] "
    },
    {
      "name": "_TM_ExtProp_DbTableName",
      "value": "Tracking"
    },
    {
      "name": "_TM_ExtProp_DbSchemaName",
      "value": "dim"
    },
    {
      "name": "TabularEditor_TranslatedNames",
      "value": "{\"en-US\":\"Tracking\"}"
    }
  ]
}