{
  "connection_types": [
    {
      "category": "AX",
      "name": "AX2012R3"
    }
  ],
  "tables": [
    {
      "table_identifier": "dbo.BUDGETPLANNINGPROCESS",
      "columns": [
        {
          "column_name": "DESCRIPTION",
          "data_type": "nvarchar",
          "character_maximum_length": 60,
          "numeric_precision": null,
          "numeric_scale": null,
          "nullable": false,
          "business_key": false
        },
        {
          "column_name": "NAME",
          "data_type": "nvarchar",
          "character_maximum_length": 30,
          "numeric_precision": null,
          "numeric_scale": null,
          "nullable": false,
          "business_key": false
        },
        {
          "column_name": "RECVERSION",
          "data_type": "int",
          "character_maximum_length": null,
          "numeric_precision": 10,
          "numeric_scale": 0,
          "nullable": false,
          "business_key": false
        },
        {
          "column_name": "PARTITION",
          "data_type": "bigint",
          "character_maximum_length": null,
          "numeric_precision": 19,
          "numeric_scale": 0,
          "nullable": false,
          "business_key": false
        },
        {
          "column_name": "RECID",
          "data_type": "bigint",
          "character_maximum_length": null,
          "numeric_precision": 19,
          "numeric_scale": 0,
          "nullable": false,
          "business_key": false
        }
      ]
    },
    {
      "table_identifier": "dbo.BUDGETPLANHEADER",
      "columns": [
        {
          "column_name": "BUDGETPLANNINGPROCESS",
          "data_type": "bigint",
          "character_maximum_length": null,
          "numeric_precision": 19,
          "numeric_scale": 0,
          "nullable": false,
          "business_key": false
        },
        {
          "column_name": "BUDGETPLANNINGSTAGE",
          "data_type": "bigint",
          "character_maximum_length": null,
          "numeric_precision": 19,
          "numeric_scale": 0,
          "nullable": false,
          "business_key": false
        },
        {
          "column_name": "DOCUMENTNUMBER",
          "data_type": "nvarchar",
          "character_maximum_length": 20,
          "numeric_precision": null,
          "numeric_scale": null,
          "nullable": false,
          "business_key": false
        },
        {
          "column_name": "NAME",
          "data_type": "nvarchar",
          "character_maximum_length": 30,
          "numeric_precision": null,
          "numeric_scale": null,
          "nullable": false,
          "business_key": false
        },
        {
          "column_name": "RECVERSION",
          "data_type": "int",
          "character_maximum_length": null,
          "numeric_precision": 10,
          "numeric_scale": 0,
          "nullable": false,
          "business_key": false
        },
        {
          "column_name": "PARTITION",
          "data_type": "bigint",
          "character_maximum_length": null,
          "numeric_precision": 19,
          "numeric_scale": 0,
          "nullable": false,
          "business_key": false
        },
        {
          "column_name": "RECID",
          "data_type": "bigint",
          "character_maximum_length": null,
          "numeric_precision": 19,
          "numeric_scale": 0,
          "nullable": false,
          "business_key": false
        }
      ]
    },
    {
      "table_identifier": "dbo.BUDGETPLANNINGSTAGE",
      "columns": [
        {
          "column_name": "DESCRIPTION",
          "data_type": "nvarchar",
          "character_maximum_length": 60,
          "numeric_precision": null,
          "numeric_scale": null,
          "nullable": false,
          "business_key": false
        },
        {
          "column_name": "NAME",
          "data_type": "nvarchar",
          "character_maximum_length": 30,
          "numeric_precision": null,
          "numeric_scale": null,
          "nullable": false,
          "business_key": false
        },
        {
          "column_name": "RECVERSION",
          "data_type": "int",
          "character_maximum_length": null,
          "numeric_precision": 10,
          "numeric_scale": 0,
          "nullable": false,
          "business_key": false
        },
        {
          "column_name": "PARTITION",
          "data_type": "bigint",
          "character_maximum_length": null,
          "numeric_precision": 19,
          "numeric_scale": 0,
          "nullable": false,
          "business_key": false
        },
        {
          "column_name": "RECID",
          "data_type": "bigint",
          "character_maximum_length": null,
          "numeric_precision": 19,
          "numeric_scale": 0,
          "nullable": false,
          "business_key": false
        }
      ]
    }
  ]
}