{
  "name": "IsOverdueMaxCode",
  "expression": [
    "MAX ( 'IsOverdue'[YesNoCode] )",
    "",
    ""
  ],
  "isHidden": true,
  "annotations": [
    {
      "name": "TabularEditor_TranslatedNames",
      "value": "{\"en-US\":\"Is Overdue Max Code\"}"
    }
  ]
}