{
  "name": "TransactionNetAmount_SO",
  "expression": [
    "SUM ( 'factSalesOrder'[NetAmount] )",
    "",
    ""
  ],
  "formatString": "#,##0.00",
  "displayFolder": "Σ Transaction Currency",
  "annotations": [
    {
      "name": "TabularEditor_TranslatedNames",
      "value": "{\"en-US\":\"Net Amount\"}"
    },
    {
      "name": "TabularEditor_TranslatedDisplayFolders",
      "value": "{\"en-US\":\"Σ Transaction Currency\"}"
    }
  ]
}