{
  "base_name": "TaxAuthority",
  "category": "dim",
  "database_object": {
    "table_identifier": "dim.TaxAuthority",
    "columns": [
      {
        "column_name": "TaxAuthorityID",
        "data_type": "int",
        "character_maximum_length": 0,
        "numeric_precision": 10,
        "numeric_scale": 0,
        "nullable": false,
        "business_key": false
      },
      {
        "column_name": "DataConnectionID",
        "data_type": "int",
        "character_maximum_length": 0,
        "numeric_precision": 10,
        "numeric_scale": 0,
        "nullable": false,
        "business_key": false
      },
      {
        "column_name": "ExecutionTimestamp",
        "data_type": "timestamp",
        "character_maximum_length": 0,
        "numeric_precision": 0,
        "numeric_scale": 0,
        "nullable": false,
        "business_key": false
      },
      {
        "column_name": "ComponentExecutionID",
        "data_type": "int",
        "character_maximum_length": 0,
        "numeric_precision": 10,
        "numeric_scale": 0,
        "nullable": false,
        "business_key": false
      },
      {
        "column_name": "CompanyID",
        "data_type": "int",
        "character_maximum_length": 0,
        "numeric_precision": 10,
        "numeric_scale": 0,
        "nullable": false,
        "business_key": false
      },
      {
        "column_name": "Partition",
        "data_type": "bigint",
        "character_maximum_length": 0,
        "numeric_precision": 19,
        "numeric_scale": 0,
        "nullable": false,
        "business_key": false
      },
      {
        "column_name": "TaxAuthorityCode",
        "data_type": "nvarchar",
        "character_maximum_length": 10,
        "numeric_precision": 0,
        "numeric_scale": 0,
        "nullable": false,
        "business_key": false
      },
      {
        "column_name": "TaxAuthorityDesc",
        "data_type": "nvarchar",
        "character_maximum_length": 60,
        "numeric_precision": 0,
        "numeric_scale": 0,
        "nullable": false,
        "business_key": false
      },
      {
        "column_name": "TaxAuthorityCodeDesc",
        "data_type": "nvarchar",
        "character_maximum_length": 60,
        "numeric_precision": 0,
        "numeric_scale": 0,
        "nullable": false,
        "business_key": false
      }
    ],
    "indexes": [
      {
        "name": "ix_c_dim_taxauthority",
        "type": "Clustered",
        "columns": [
          "TaxAuthorityCode",
          "CompanyID",
          "Partition",
          "DataConnectionID"
        ],
        "included_columns": [
          ""
        ],
        "fill_factor": 90,
        "is_unique": false
      }
    ]
  },
  "validation": {
    "main_stage_schema": "stage_ax",
    "main_stage_table": "TaxAuthorityAddress",
    "matches_grain": 1,
    "is_active": 1
  },
  "load_procedures": null,
  "views": null
}