{
  "name": "AmountBalanceMOM_GL",
  "description": "Difference between Amount Balance and Amount Balance LM",
  "expression": [
    "[AmountBalance_GL] - [AmountBalanceLM_GL]",
    "",
    ""
  ],
  "formatString": "#,##0.00",
  "displayFolder": "Σ MOM",
  "annotations": [
    {
      "name": "TabularEditor_TranslatedNames",
      "value": "{\"en-US\":\"Amount Balance MOM\"}"
    },
    {
      "name": "TabularEditor_TranslatedDisplayFolders",
      "value": "{\"en-US\":\"Σ MOM\"}"
    }
  ]
}