{
  "base_name": "InventoryReference",
  "category": "dim",
  "database_object": {
    "table_identifier": "dim.InventoryReference",
    "columns": [
      {
        "column_name": "InventoryReferenceID",
        "data_type": "int",
        "character_maximum_length": 0,
        "numeric_precision": 10,
        "numeric_scale": 0,
        "nullable": false,
        "business_key": false
      },
      {
        "column_name": "DataConnectionID",
        "data_type": "int",
        "character_maximum_length": 0,
        "numeric_precision": 10,
        "numeric_scale": 0,
        "nullable": false,
        "business_key": false
      },
      {
        "column_name": "ExecutionTimestamp",
        "data_type": "timestamp",
        "character_maximum_length": 0,
        "numeric_precision": 0,
        "numeric_scale": 0,
        "nullable": false,
        "business_key": false
      },
      {
        "column_name": "ComponentExecutionID",
        "data_type": "int",
        "character_maximum_length": 0,
        "numeric_precision": 10,
        "numeric_scale": 0,
        "nullable": false,
        "business_key": false
      },
      {
        "column_name": "ReferenceCode",
        "data_type": "nvarchar",
        "character_maximum_length": 20,
        "numeric_precision": 0,
        "numeric_scale": 0,
        "nullable": false,
        "business_key": false
      },
      {
        "column_name": "ReferenceCategoryCode",
        "data_type": "int",
        "character_maximum_length": 0,
        "numeric_precision": 10,
        "numeric_scale": 0,
        "nullable": false,
        "business_key": false
      },
      {
        "column_name": "ReferenceCategoryDesc",
        "data_type": "nvarchar",
        "character_maximum_length": 100,
        "numeric_precision": 0,
        "numeric_scale": 0,
        "nullable": true,
        "business_key": false
      },
      {
        "column_name": "Partition",
        "data_type": "bigint",
        "character_maximum_length": 0,
        "numeric_precision": 19,
        "numeric_scale": 0,
        "nullable": false,
        "business_key": false
      }
    ],
    "indexes": [
      {
        "name": "ix_c_dim_inventoryreference",
        "type": "Clustered",
        "columns": [
          "RecId",
          "Partition",
          "DataConnectionID"
        ],
        "included_columns": [
          ""
        ],
        "fill_factor": 90,
        "is_unique": false
      }
    ]
  },
  "validation": null, 
  "load_procedures": null,
  "views": null
}