{
  "base_name": "ExchangeRates",
  "category": "help",
  "database_object": {
    "table_identifier": "help.ExchangeRates",
    "columns": [
      {
        "column_name": "CrossRate",
        "data_type": "decimal",
        "character_maximum_length": null,
        "numeric_precision": 38,
        "numeric_scale": 20,
        "nullable": false,
        "business_key": false
      },
      {
        "column_name": "ExchangeRate1",
        "data_type": "decimal",
        "character_maximum_length": null,
        "numeric_precision": 38,
        "numeric_scale": 20,
        "nullable": false,
        "business_key": false
      },
      {
        "column_name": "ExchangeRate2",
        "data_type": "decimal",
        "character_maximum_length": null,
        "numeric_precision": 38,
        "numeric_scale": 20,
        "nullable": false,
        "business_key": false
      },
      {
        "column_name": "ExchangeRateType",
        "data_type": "bigint",
        "character_maximum_length": null,
        "numeric_precision": 19,
        "numeric_scale": 0,
        "nullable": false,
        "business_key": false
      },
      {
        "column_name": "FromCurrencyCode",
        "data_type": "nvarchar",
        "character_maximum_length": 20,
        "numeric_precision": null,
        "numeric_scale": null,
        "nullable": false,
        "business_key": false
      },
      {
        "column_name": "ToCurrencyCode",
        "data_type": "nvarchar",
        "character_maximum_length": 20,
        "numeric_precision": null,
        "numeric_scale": null,
        "nullable": false,
        "business_key": false
      },
      {
        "column_name": "ValidFrom",
        "data_type": "datetime",
        "character_maximum_length": null,
        "numeric_precision": null,
        "numeric_scale": null,
        "nullable": false,
        "business_key": false
      },
      {
        "column_name": "ValidTo",
        "data_type": "datetime",
        "character_maximum_length": null,
        "numeric_precision": null,
        "numeric_scale": null,
        "nullable": false,
        "business_key": false
      },
      {
        "column_name": "RecId",
        "data_type": "bigint",
        "character_maximum_length": null,
        "numeric_precision": 19,
        "numeric_scale": 0,
        "nullable": false,
        "business_key": false
      },
      {
        "column_name": "Partition",
        "data_type": "bigint",
        "character_maximum_length": null,
        "numeric_precision": 10,
        "numeric_scale": 0,
        "nullable": false,
        "business_key": false
      },
      {
        "column_name": "DataConnectionID",
        "data_type": "int",
        "character_maximum_length": null,
        "numeric_precision": 10,
        "numeric_scale": 0,
        "nullable": false,
        "business_key": false
      },
      {
        "column_name": "ExecutionTimestamp",
        "data_type": "timestamp",
        "character_maximum_length": null,
        "numeric_precision": null,
        "numeric_scale": null,
        "nullable": false,
        "business_key": false
      },
      {
        "column_name": "ComponentExecutionID",
        "data_type": "int",
        "character_maximum_length": null,
        "numeric_precision": 10,
        "numeric_scale": 0,
        "nullable": false,
        "business_key": false
      }
    ],
    "indexes": [
      {
        "name": "ix_c_help_exchangerates",
        "type": "Clustered",
        "columns": [
          "FromCurrencyCode",
          "ToCurrencyCode",
          "ValidFrom",
          "ValidTo"
        ],
        "included_columns": [
          ""
        ],
        "fill_factor": 90,
        "is_unique": false
      }
    ]
  },
  "load_procedures": [
    {
      "sequence": 100,
      "identifier": "help.LoadExchangeRates"
    }
  ],
  "views": null,
  "load_type": 0,
  "validation": {
    "main_stage_schema": null,
    "main_stage_table": "",
    "matches_grain": false,
    "is_active": false
  }
}